0,1,4,2,2.5,10,2,2.5,10
1,1,4,2,2.5,10,2,2.5,10
2,1,4,2,2.5,10,2,2.5,10
3,1,4,2,2.5,10,2,2.5,10
4,1,4,2,2.5,10,2,2.5,10
5,1,4,2,2.5,10,2,2.5,10
6,1,4,2,2.5,10,2,2.5,10
7,1,4,2,2.5,10,2,2.5,10
8,1,4,2,2.5,10,2,2.5,10
9,1,4,2,2,8,2,2,8
10,2,2,1,1,4,1,1,4
11,3,1.5,0.5,0.5,2,0.5,0.5,2
12,3,1.5,0.5,0.5,2,0.5,0.5,2
13,3,1.5,0.5,0.5,2,0.5,0.5,2
14,3,1.5,0.5,0.5,2,0.5,0.5,2
15,3,1.5,0.5,0.5,2,0.5,0.5,2
16,3,1.5,0.5,0.5,2,0.5,0.5,2
17,3,1.5,0.5,0.5,2,0.5,0.5,2
18,3,1.5,0.5,0.5,2,0.5,0.5,2
19,3,1.5,0.5,0.5,2,0.5,0.5,2
20,3,1.5,0.5,0.5,2,0.5,0.5,2
21,3,1.5,0.5,0.5,2,0.5,0.5,2
22,3,1.5,0.5,0.5,2,0.5,0.5,2
23,3,1.5,0.5,0.5,2,0.5,0.5,2
24,3,1.5,0.5,0.5,2,0.5,0.5,2
25,3,1.5,0.5,0.5,2,0.5,0.5,2
26,3,1.5,0.5,0.5,2,0.5,0.5,2
27,3,1.5,0.5,0.5,2,0.5,0.5,2
28,3,1.5,0.5,0.5,2,0.5,0.5,2
29,3,1.5,0.5,0.5,2,0.5,0.5,2
30,3,1.5,0.5,0.5,2,0.5,0.5,2
31,3,1.5,0.5,0.5,2,0.5,0.5,2
32,3,1.5,0.5,0.5,2,0.5,0.5,2
33,3,1.5,0.5,0.5,2,0.5,0.5,2
