ORDERINGS FOR EXPERIMENTS
-------------------------

8  3
        ids = {8, 3, 7, 5}
7  5

------------------

7  8
        ids = {7, 8, 5, 3}
5  3

------------------

5  7
        ids = {5, 7, 3, 8}
3  8

------------------

3  5
        ids = {3, 5, 8, 7}
8  7

------------------
