0,1,4,3,1,4,1,2,4
1,1,4,2,1,4,1,3,6
2,1,4,2,1,4,1,3,6
3,1,4,2,1,4,1,3,6
4,1,4,2,1,4,1,3,6
5,1,4,2,1,4,1,3,6
6,1,4,2,1.5,6,2,2.33333,7
7,1,4,2,1,4,1,3,6
8,1,4,2,1,4,1,3,6
9,1,4,2,1.5,6,1,3,6
10,1,4,2,1.5,6,2,2.33333,7
11,1,4,3,1,4,1,2,4
12,1,4,3,1,4,1,2,4
13,1,4,3,1.5,6,1,3,6
14,1,4,2,1.25,5,2,2,6
15,1,4,2,1.25,5,2,2,6
16,2,2,1,1,4,0,2,4
17,1,4,3,1,4,1,2,4
18,1,4,2,1.5,6,1,3,6
19,1,4,2,1.5,6,1,4,8
20,1,4,2,1.5,6,1,4,8
21,1,4,2,1.5,6,1,4,8
22,1,4,2,1.5,6,1,4,8
23,1,4,2,1.5,6,1,4,8
