0,1,4,3,1,4,1,2,4
1,1,4,2,1,4,1,3,6
2,1,4,2,1,4,1,3,6
3,1,4,2,1,4,1,3,6
4,1,4,2,1,4,1,3,6
5,1,4,2,1,4,1,3,6
6,1,4,2,1.5,6,2,2.33333,7
7,1,4,2,1,4,1,3,6
8,1,4,2,1,4,1,3,6
9,1,4,2,1.5,6,2,2,6
10,1,4,2,1.5,6,2,2,6
11,1,4,3,1,4,1,2,4
12,1,4,3,1,4,1,2,4
13,1,4,3,1,4,1,2,4
14,1,4,3,1,4,1,2,4
15,2,2.5,0.75,1,4,0.666667,1.33333,4
16,1,4,2,1.75,7,2,2.33333,7
17,1,4,2,1.25,5,1,3,6
18,1,4,3,1,4,1,2,4
19,1,4,2,1.25,5,1,3,6
20,1,4,2,1.5,6,2,2,6
21,1,4,2,1.25,5,1,3,6
22,1,4,2,1.25,5,1,3,6
23,1,4,2,1.5,6,1,3,6
24,1,4,2,1.5,6,1,3,6
