0,1,10,2,9
1,1,10,3,6.6
2,1,10,3,6
3,1,10,3,6.4
4,1,10,3,5.2
5,1,10,4,4.6
6,1,10,4,5.2
7,1,10,4,5.4
8,2,8.2,2.7,5.4
9,1,10,4,5.4
10,1,10,4,5
11,1,10,5,4.8
12,2,8.2,3.6,4.2
13,2,8.2,3.6,3.8
14,2,8.2,3.6,3.6
15,2,8.2,3.6,4
16,3,5.4,3,3
17,4,4.2,2,2
18,3,5.4,3,2.8
19,3,5.4,3,3.2
20,3,5.4,3,2.8
21,3,5.4,3,2.8
22,3,5.4,3,3.4
23,2,6.8,4.2,3.6
24,2,6.8,4.2,3.4
25,2,6.8,3.4,3
26,2,6.8,3.4,3.6
27,3,6.6,3.2,3.2
28,2,6.8,3.4,3.6
29,2,6.8,2.6,4
30,2,6.8,2.6,4.6
32,2,6.8,2.6,4
33,2,6.8,3.4,3.6
34,2,6.8,3.4,4.2
35,2,6.8,3.4,3.6
36,2,6.8,2.6,3.2
37,2,6.8,2.6,3.2
38,2,6.8,5,3
39,2,6.8,5,3.2
40,4,4.2,2,2.4
41,2,6.8,3.4,3.6
42,2,6.8,2.6,4.2
43,2,6.8,2.6,4
44,2,6.8,3.4,3.6
45,3,4.4,2.2,3.2
46,4,2.6,1,2.6
47,3,4.4,2.8,3.2
48,3,5.4,3.7,2.6
49,2,6.8,5,3
50,3,4.4,2.8,2.8
51,2,6.8,4.2,3.2
52,2,6.8,4.2,3.2
53,2,6.8,4.2,2.8
54,2,6.8,3.4,3.4
55,3,3.8,2,3.2
56,3,3.8,2.3,2.8
57,3,3.8,2,3.2
58,3,3.8,2.3,2.6
59,4,3.4,1.9,2.2
60,3,3.8,1.5,2.8
