0,2,8.2,1.8,7.6
1,1,10,3,6.6
2,1,10,4,5.4
3,1,10,3,5.6
4,1,10,3,5
5,2,6.8,3.4,3.6
6,2,6.8,2.6,4
7,2,6.8,4.2,3.4
8,2,6.8,3.4,4.2
9,1,10,6,4
10,1,10,5,4
11,1,10,6,3.6
12,1,10,5,3.8
13,2,5.2,3.2,3
14,1,10,6,3.6
15,2,5.2,3.2,2.8
16,2,5.2,3.2,2.6
17,3,4.2,1.9,3.2
18,2,5.2,3.2,3
19,2,5.2,3.2,3
20,3,4.2,2.3,2.6
21,3,4.2,2.8,3
22,3,3.6,2.2,2.4
23,2,5.2,3.2,3
24,2,5.2,3.2,3.2
25,2,5.2,3.2,3.2
26,2,5.2,3.2,3.2
27,3,3.4,1.7,3
28,2,5.2,2.8,3.4
29,1,10,6,4
30,1,10,6,3.8
32,1,10,6,3.8
33,1,10,5,4
34,2,8.2,4.5,3.2
35,1,10,6,3.4
36,1,10,6,3.8
37,2,8.2,3.6,3.8
38,1,10,6,4.2
39,1,10,5,5
40,1,10,3,5.4
41,1,10,4,4.2
42,1,10,4,4.2
43,1,10,4,4.2
44,2,8.2,3.6,3.6
45,1,10,4,4.2
46,1,10,4,4.2
47,1,10,6,3.2
48,1,10,6,3.2
49,3,3.8,2,3
50,2,6.8,4.2,3.2
51,3,5.4,3,3
52,3,5.4,2.3,3
53,3,5.4,3,3.2
54,3,5.4,3,2.8
55,3,5.4,3.7,2.6
56,3,5.4,3,3.2
57,3,5.4,3,3
58,3,5.4,3,3.2
59,3,5.4,1.6,3.8
60,3,5.4,2.3,3
