0,1,10,2,9.4
1,1,10,3,6.8
2,1,10,3,6.6
3,1,10,3,5.8
4,1,10,3,5.6
5,1,10,4,6
6,1,10,3,5.6
7,1,10,3,5.4
8,1,10,5,5.4
9,1,10,4,5.2
10,1,10,5,5
11,1,10,5,5
12,1,10,5,4.6
13,2,6.8,2.6,4.8
14,1,10,5,5
15,2,8.2,3.6,4.8
16,2,8.2,3.6,4.4
17,2,8.2,4.5,4
18,2,8.2,3.6,5.2
19,2,8.2,3.6,4.2
20,2,8.2,3.6,4
21,3,5.4,2.3,3.8
22,1,10,5,4
23,1,10,5,4.4
24,2,6.8,3.4,4.4
25,2,6.8,3.4,4
26,2,6.8,3.4,3.8
27,2,6.8,3.4,4.6
28,4,5.2,2.8,3
29,3,5.4,3.7,2.8
30,2,6.8,3.4,3.4
32,2,6.8,4.2,3.4
33,2,6.8,3.4,3.4
34,2,6.8,3.4,3.8
35,2,6.8,2.6,4
36,2,6.8,2.6,4.4
37,3,6.6,3.2,3.4
38,2,6.8,2.6,4.4
39,2,6.8,2.6,4.2
40,2,6.8,2.6,4.8
41,2,6.8,2.6,4.4
42,3,6.6,3.2,3.4
43,2,6.8,2.6,4.2
44,2,6.8,3.4,4
45,2,6.8,2.6,4.6
46,3,6.6,3.2,3.4
47,2,6.8,2.6,4.6
48,2,6.8,2.6,4
49,2,6.8,3.4,3.6
50,2,6.8,3.4,4.2
51,2,6.8,3.4,4.2
52,3,5.4,3,2.4
53,1,10,7,3.8
54,2,6.8,4.2,3
55,2,6.8,4.2,3.4
56,4,3,1.6,2.4
57,3,5.4,4.4,2.2
58,3,5.4,3.7,2.4
59,3,5.4,3.7,2.8
60,4,3,1.6,2.4
