0,2,8.2,1.8,11.2
1,1,10,2,10.6
2,1,10,3,8.2
3,1,10,4,6.2
4,1,10,4,5.4
5,1,10,4,5.4
6,2,8.2,3.6,4.2
7,2,8.2,3.6,4.4
8,4,3,1.6,2.6
9,2,8.2,4.5,3.6
10,3,6.6,2.4,3.8
11,3,6.6,2.4,4
12,3,6.6,2.4,3.8
13,3,6.6,3.2,3.6
14,3,6.6,3.2,3.2
15,3,6.6,3.2,3.6
16,3,6.6,3.2,2.4
17,3,6.6,3.2,3.4
18,3,6.6,3.2,3.2
19,3,6.6,4,2.4
20,3,6.6,3.2,3.6
21,3,6.6,3.2,3.6
22,3,6.6,3.2,3.8
23,3,6.6,3.2,3.6
24,2,8.2,3.6,3.8
25,2,8.2,4.5,4.2
26,2,8.2,2.7,4.8
27,2,8.2,4.5,3.8
28,2,8.2,3.6,4
29,3,6.6,3.2,3.8
30,2,8.2,2.7,4.2
32,2,8.2,4.5,4.6
33,3,5.4,3,3.2
34,3,5.4,3,3
35,3,4.6,2.4,3.4
36,3,4.6,2.4,2.8
37,4,3.6,2.6,1.8
38,3,4.6,2.4,3
39,3,4.6,1.8,3.8
40,3,4.6,2.4,3.2
41,3,4.6,2.4,3.2
42,4,4.2,2,2.2
43,3,4.6,3,2.6
44,3,4.6,1.8,3.8
45,3,4.6,2.4,3.2
46,3,4.6,2.4,3.4
47,4,4.2,2,2.2
48,3,4.6,2.4,3.2
49,3,4.6,1.8,4
50,2,5.2,3,3.4
51,2,5.2,2.6,3.6
52,3,4.6,1.5,4.2
53,3,4.6,1.5,4.4
54,2,5.2,2.4,4.2
55,2,5.2,3.2,3.4
56,3,4.6,2.7,3.6
57,2,5.2,3.2,4
58,2,5.2,3.6,3.4
59,3,4.6,3.6,2.6
60,3,4.6,3,2.8
