0,2,8.2,2.7,5
1,1,10,3,6
2,1,10,4,4.8
3,1,10,4,4.6
4,1,10,4,4.6
5,1,10,4,5.2
6,1,10,5,4.2
7,1,10,5,4.4
8,1,10,5,4.8
9,1,10,5,3.8
10,1,10,4,4.4
11,1,10,5,4.2
12,1,10,5,4.6
13,1,10,5,4
14,1,10,5,4.2
15,1,10,5,4.8
16,1,10,5,4.4
17,1,10,5,4.2
18,1,10,6,4
19,1,10,6,3.2
20,1,10,7,4
21,2,5.2,3.8,3.6
22,3,3.6,2.2,3
23,3,3.6,2.2,2.8
24,3,3.6,2.2,2.8
25,4,2.8,1.4,2
26,3,3.6,2.2,2.8
27,3,3.6,2.6,2.4
28,3,3.6,2.2,3
29,4,2.8,1.4,2.2
30,3,3.6,2.2,3
32,3,3.6,2.2,2.8
33,3,3.6,2.2,3
34,3,3.6,2.2,2.8
35,2,5.2,3.2,3.2
36,2,5.2,3.2,3.6
37,2,5.2,3.2,3.4
38,2,5.2,3.2,2.8
39,3,3.6,2.2,2.8
40,3,3.6,2.2,2.8
41,3,3.6,2.2,2.6
42,3,3.6,2.2,2.8
43,4,2.8,1.4,2.6
44,3,3.6,2.2,3
45,3,3.6,2.2,2.8
46,3,3.6,2.2,2.8
47,4,2.8,1.4,2.4
48,3,3.6,1.8,3.2
49,3,3.6,2.2,3
50,3,3.6,2.2,2.8
51,4,2.8,1.4,2.6
52,3,3.6,1.8,3.2
53,3,3.6,1.8,3
54,3,3.6,2.2,2.8
55,3,3.6,2.2,2.6
56,3,3.6,2.2,2.6
57,2,5.2,3.2,3.2
58,2,5.2,3.2,3.4
59,2,5.2,3.2,3.4
60,2,5.2,3.2,3.4
