0,2,8.2,1.8,8.6
1,2,8.2,2.7,7
2,1,10,3,7.6
3,1,10,3,7.2
4,1,10,4,6.2
5,1,10,4,6
6,1,10,4,5.2
7,1,10,4,5.2
8,1,10,4,5
9,1,10,4,5
10,1,10,4,5
11,2,8.2,5.4,3.6
12,1,10,4,4.6
13,1,10,4,4.2
14,2,8.2,3.6,4
15,1,10,5,3
16,1,10,4,4.2
17,1,10,4,5.2
18,1,10,4,5
19,1,10,4,4.2
20,2,5.8,2.7,3.8
21,2,5.8,2.7,4.2
22,2,5.8,3.4,3.2
23,4,4.2,2.6,2.4
24,2,5.8,3.4,3.8
25,2,5.8,2.7,3.6
26,2,5.8,2.7,3.8
27,3,4.6,2.4,2.8
28,3,4.6,2.4,2.8
29,3,4.6,2.1,3.4
30,3,4.6,2.1,3.4
32,3,4.6,2.4,3.4
33,3,4.6,2.1,3.8
34,2,8.2,4.5,3.6
35,2,8.2,4.5,3.6
36,2,8.2,5.4,4
37,3,5.4,3,3.4
38,2,8.2,6.3,3.2
39,2,8.2,6.3,2.6
40,2,8.2,5.4,3
41,3,5.4,3,3
42,2,8.2,5.4,3.6
43,3,4.2,2.2,3.2
44,1,10,7,3.8
45,1,10,5,4.8
46,1,10,7,4.2
47,2,8.2,3.6,4.6
48,1,10,6,4
49,1,10,5,4.6
50,1,10,4,5.2
51,2,8.2,3.6,4
52,2,8.2,2.7,5.2
53,2,8.2,2.7,5.4
54,2,8.2,2.7,4.8
55,2,8.2,3.6,4.4
56,3,4.2,2.3,3.2
57,3,5.4,2.3,3.6
58,2,6.8,4.2,3.4
59,2,6.8,3.4,4.6
60,2,6.8,3.4,4.2
