0,2,8.2,1.8,7.4
1,1,10,3,7.4
2,1,10,3,6
3,1,10,5,5.8
4,1,10,5,4.6
5,1,10,5,4.6
6,1,10,5,4.8
7,3,4.6,2.1,3.2
8,3,4.6,2.4,3
9,3,4.6,2.4,3
10,3,6.6,3.2,3
11,3,6.6,3.2,2.8
12,3,6.6,3.2,3.2
13,3,6.6,3.2,3.2
14,3,6.6,3.2,3
15,3,6.6,3.2,2
16,3,6.6,3.2,3
17,3,6.6,3.2,2.8
18,3,6.6,3.2,3.4
19,3,6.6,3.2,2.4
20,3,6.6,4,2.6
21,3,6.6,3.2,3
22,3,6.6,3.2,3.6
23,3,6.6,3.2,3
24,2,8.2,4.5,3.4
25,3,4.2,1.8,3.4
26,3,4.2,2.3,3
27,3,4.2,2.3,2.8
28,3,4.2,2.3,2.8
29,4,3,1.3,2.6
30,5,2.6,1.2,1.8
32,4,3,1.3,2.6
33,4,3,1.3,2.4
34,4,3,1.7,2.4
35,3,4.2,2.3,2.8
36,3,4.2,2.8,2.6
37,2,5,3.5,3
38,2,5,3.5,2.8
39,3,3.8,2.3,2.6
40,3,4.2,2.3,2.8
41,3,4.2,2.8,2.8
42,3,4.2,2.3,3.2
43,4,3.6,1.8,2.4
44,2,5,2.5,3.6
45,2,5,3,3.6
46,4,3,1.3,2.4
47,4,3,1.3,2.8
48,4,3,1.7,2.4
49,4,3,1.3,2.8
50,4,3,1.3,2.4
51,4,3,1.3,2.6
52,5,2.6,1.2,2.4
53,4,3,1.6,2.6
54,4,3,1.6,2.6
55,4,3,1.6,2.6
56,4,3,1.2,2.6
57,4,3,0.9,3.2
58,3,4.6,2.7,3.2
59,3,4.6,3,2.6
60,3,4.6,2.7,2.6
