0,1,10,2,11.2
1,1,10,3,8.4
2,1,10,3,6.4
3,1,10,5,4.8
4,2,8.2,4.5,3.8
5,1,10,5,4.6
6,1,10,5,4.2
7,1,10,5,4.6
8,1,10,5,4.4
9,1,10,5,4
10,1,10,5,4.4
11,2,8.2,4.5,4.2
12,2,8.2,4.5,3.4
13,2,8.2,4.5,3.6
14,2,8.2,4.5,3.8
15,2,8.2,4.5,3.8
16,2,8.2,5.4,3.6
17,2,8.2,3.6,4.4
18,2,8.2,3.6,4
19,3,4.6,2.7,3.6
20,3,4.6,2.4,3.2
21,4,3.6,1.6,2.8
22,3,6.6,3.2,3
23,4,3.6,1.8,2.6
24,2,8.2,4.5,4
25,3,6.6,3.2,3
26,2,8.2,4.5,3.8
27,3,6.6,2.4,4
28,3,6.6,3.2,2.8
29,3,6.6,4,3
30,4,5.2,2.8,2.6
32,3,6.6,4,3.2
33,3,6.6,4,3
34,5,3.2,1.2,2.2
35,3,6.6,4,3
36,3,6.6,4.8,3
37,3,6.6,4,3.2
38,2,8.2,4.5,3.4
39,2,8.2,4.5,3.2
40,2,8.2,3.6,3.8
41,2,8.2,2.7,4
42,2,8.2,2.7,5
43,3,6.6,2.4,4.2
44,2,8.2,3.6,4.4
45,3,6.6,3.2,3.6
46,3,6.6,2.4,4.2
47,3,6.6,2.4,4.4
48,2,8.2,4.5,3.6
49,2,8.2,3.6,3.8
50,2,8.2,3.6,4.4
51,2,8.2,3.6,4.6
52,2,8.2,3.6,5.2
53,2,8.2,3.6,4.8
54,2,8.2,3.6,4.2
55,3,6.6,3.2,3.6
56,3,6.6,3.2,4.2
57,3,6.6,3.2,4.2
58,3,6.6,3.2,3.8
59,3,6.6,3.2,4
60,4,5.2,2.1,4
