0,2,8.2,1.8,7.6
1,1,10,3,6.4
2,1,10,4,5.6
3,1,10,4,5.2
4,1,10,4,5.4
5,1,10,4,5.6
6,1,10,5,4.2
7,1,10,5,4.8
8,2,6.8,3.4,4.2
9,2,6.8,3.4,4.2
10,2,6.8,3.4,4.4
11,2,6.8,3.4,4.6
12,1,10,7,4.2
13,1,10,6,4.4
14,2,6.8,2.6,4.6
15,2,6.8,2.6,4.6
16,2,6.8,2.6,4.4
17,2,6.8,3.4,4
18,2,6.8,2.6,4
19,2,6.8,2.6,3.8
20,4,5.2,2.1,3.2
21,3,6.6,3.2,4
22,3,6.6,2.4,4
23,3,6.6,2.4,3.2
24,2,6.8,3.4,3.8
25,2,6.8,3.4,3.8
26,2,6.8,4.2,3
27,2,6.8,3.4,3.2
28,2,6.8,3.4,3
29,2,6.8,3.4,3.6
30,3,5.4,3,3.2
32,2,6.8,3.4,3.2
33,2,6.8,3.4,3.4
34,3,4.4,2.2,2.8
35,3,4.4,2.2,3.2
36,3,4.4,2.2,3
37,3,4.4,2.2,2.6
38,4,2.8,1.8,2.2
39,4,2.8,1.8,2
40,5,2.2,1.2,2
41,4,2.8,1.8,2.2
42,5,2.2,1.2,2
43,3,4.4,2.8,2.6
44,3,4.4,2.2,2.4
45,4,3.4,1.9,2.4
46,3,4.4,2.2,2.8
47,3,4.4,2.2,3.2
48,3,4.4,2.2,2.8
49,5,3.2,1.7,2
50,4,4.2,2,2.2
51,4,4.2,2,2.2
52,4,4.2,2,2.6
53,4,4.2,1.4,3.2
54,4,4.2,2,3
55,4,4.2,2,2.8
56,4,4.2,2,2.6
57,4,4.2,2,2.6
58,4,4.2,2.6,2.4
59,4,4.2,2,2.6
60,4,4.2,2,3
