0,1,10,3,6.8
1,1,10,3,5.4
2,1,10,4,4.4
3,1,10,6,3.6
4,1,10,6,4
5,1,10,4,4.2
6,1,10,4,4.4
7,1,10,4,4.4
8,2,5.2,3.2,3.4
9,1,10,6,4.2
10,1,10,5,4.6
11,1,10,4,4.2
12,1,10,4,4.6
13,1,10,4,4.8
14,1,10,4,4.6
15,2,5.2,2.6,3.4
16,2,5.2,2.6,4
17,2,5.2,3.2,3.4
18,2,5.2,3,3.6
19,2,5.2,2.6,4
20,2,5.2,2.6,4
21,2,5.2,3.6,3.2
22,2,5.2,3,3.8
23,2,5.2,3,3.8
24,2,5.2,3.6,3.6
25,2,5.2,3,4
26,2,5.2,3,3.4
27,2,5.2,3,3.8
28,2,5.2,3,3.6
29,2,5.2,3,4
30,2,5.2,3.6,3.2
32,2,5.2,3,3.4
33,2,5.2,3,4
34,2,5.2,3,4.2
35,2,5.2,3,3.6
36,2,5.2,3,4.2
37,2,5.2,3.6,3.2
38,2,5.2,3,3.6
39,2,5.2,3,4
40,2,5.2,3,3.2
41,2,5.2,3,3.6
42,3,4.6,2.4,3
43,2,5.2,3,3
44,2,5.2,3,4
45,2,5.2,3,4
46,2,5.2,3,3.2
47,2,5.2,3,3.2
48,2,5.2,3,3.6
49,2,5.2,3,3.8
50,2,5.2,3,3.8
51,3,4.4,2.2,3.2
52,2,5.2,3,3.4
53,2,5.2,3,3.4
54,2,5.2,3,3.2
55,2,5.2,3,3.4
56,2,5.2,3,4
57,2,5.2,3,3.4
58,2,5.2,3,3.4
59,2,5.2,3,3
60,2,5.2,3.6,2.4
