0,1,10,2,10.8
1,1,10,3,8
2,1,10,3,5.2
3,1,10,4,5
4,1,10,7,3.8
5,2,8.2,3.6,5
6,1,10,4,5.2
7,1,10,5,4.8
8,1,10,6,4.6
9,2,8.2,5.4,3.6
10,2,5.8,3.4,3.4
11,3,5.4,3,3.2
12,3,5.4,3,3
13,3,5.4,3,3.2
14,4,3.4,1.9,2.2
15,4,3.4,1.9,2.2
16,3,5.4,3.7,3
17,5,3.2,1.7,2.2
18,3,5.4,4.4,2.8
19,3,5.4,3.7,2.6
20,4,3.4,1.9,2.6
21,4,3.4,1.4,2.8
22,4,3.4,1.4,2.8
23,4,3.4,1.4,2.8
24,4,3.4,1.9,2.6
25,4,3.4,1.9,2.6
26,4,3.6,2.1,2.2
27,4,3.6,1.6,2.6
28,1,10,5,4.4
29,2,6.8,4.2,3.6
30,1,10,5,4.4
32,2,8.2,3.6,4.4
33,1,10,5,5.8
34,1,10,5,4
35,1,10,5,4.2
36,1,10,5,5.2
37,1,10,5,4.8
38,1,10,5,5.6
39,1,10,5,4.6
40,1,10,5,5.2
41,1,10,5,4.4
42,1,10,4,5.6
43,1,10,4,5.6
44,1,10,4,5.4
45,1,10,4,4.8
46,1,10,5,4.2
47,2,5.2,2.6,3.8
48,1,10,6,3.8
49,2,5.8,4.1,3
50,2,5.8,4.1,3.4
51,2,5.8,3.4,3.2
52,2,5.8,3.4,3.2
53,3,4.6,3.6,2.6
54,1,10,7,3.6
55,2,6.8,4.2,3.8
56,1,10,6,4.2
57,1,10,6,3.6
58,4,3.6,2.6,2.4
59,2,5,2.5,3.8
60,2,5,2.5,3.8
