0,1,10,2,10.8
1,1,10,3,8
2,1,10,3,6.2
3,1,10,3,5.2
4,1,10,4,5.2
5,1,10,5,4.2
6,1,10,5,3.8
7,1,10,6,4.2
8,2,5.2,3.2,3.4
9,2,5.2,3.6,2.8
10,3,4.2,2.3,3
11,3,4.2,2.7,3.2
12,2,8.2,6.3,3.4
13,3,4.2,2.3,3
14,3,3.6,1.8,2.6
15,3,4.4,2.8,2.8
16,4,3.4,1.9,2.6
17,4,3.4,1.9,2.8
18,4,3.4,2.4,1.6
19,4,3.4,2.4,2.4
20,4,3.4,1.9,2.4
21,4,3.4,1.9,2.6
22,5,2.2,0.9,2
23,5,2.2,0.9,2.2
24,3,3.8,2.3,2.8
25,4,3.4,1.9,2.8
26,3,3.8,2.3,2.8
27,3,3.8,2.5,2.8
28,4,3,1.7,2.4
29,4,2.6,1,2.8
30,4,3.4,1.9,2.4
32,4,3.4,1.9,2.4
33,3,4.2,2.2,3
34,3,4.2,2.7,3.2
35,4,3.6,2.1,2.4
36,4,3.6,1.6,3
37,3,3.8,1.8,3.2
38,3,3.8,1.8,3.4
39,2,5,3,3.2
40,2,5,3,3.6
41,2,5,3,3.6
42,4,3.6,2.3,2.8
43,4,3,1.6,2.6
44,3,4.2,3.2,2.6
45,3,4.2,2.3,3
46,3,4.2,2.8,2.6
47,3,3.8,2.3,3
48,3,3.8,2.3,3
49,4,3,1.6,2.4
50,2,8.2,5.4,3
51,3,4.2,3.2,2.6
52,2,8.2,5.4,3.4
53,2,8.2,6.3,2.8
54,2,8.2,5.4,3.6
55,2,8.2,5.4,3.6
56,3,5.4,4.4,2.4
57,4,3.4,1.9,2.6
58,4,3.4,1.9,2.6
59,5,2.2,1.2,2
60,4,3.4,2.4,2.2
