0,1,10,2,7.6
1,1,10,4,6.4
2,1,10,4,4.4
3,1,10,4,4.4
4,2,5.8,2.4,3.2
5,3,4.6,2.1,3
6,2,5.8,3.4,3.4
7,2,5.8,3.4,3.2
8,2,5.8,3.1,3.8
9,2,5.8,2.4,3.4
10,3,4.6,2.4,2.8
11,3,4.6,2.4,3
12,3,4.6,2.4,3
13,3,4.6,2.1,3.8
14,3,4.6,2.1,3.6
15,3,4.6,2.4,3
16,3,4.6,3,2.6
17,3,4.6,2.4,3
18,3,4.6,2.1,3.4
19,3,4.6,2.1,3.4
20,3,4.6,2.1,3.2
21,3,4.6,2.4,2.4
22,3,4.6,2.4,3.2
23,3,4.6,2.4,3.2
24,4,4.2,2,2.8
25,4,4.2,2,2.2
26,4,4.2,2.6,2.4
27,4,4.2,2,2.8
28,4,4.2,2,2.8
29,4,4.2,2,3
30,4,4.2,2,3.4
32,4,4.2,2,3
33,4,4.2,2,2.4
34,5,2.6,1.2,2
35,4,4.2,1.4,2.8
36,4,4.2,2,2.6
37,4,4.2,2.6,2.2
38,4,4.2,2.6,2.2
39,4,4.2,2,2.6
40,4,4.2,2.6,2.4
41,5,2.6,1.2,2
42,3,5.4,3,3
43,3,5.4,3,2.4
44,3,5.4,3,2.8
45,4,4.2,2.6,2.2
46,4,4.2,1.4,2.4
47,4,4.2,2,2.4
48,4,4.2,2,2.2
49,4,4.2,1.4,2.6
50,4,4.2,2,2.2
51,4,4.2,1.4,2.8
52,4,4.2,1.4,2.8
53,5,2.6,1.2,2
54,4,4.2,2.6,2.2
55,4,4.2,2,2.4
56,5,2.6,1.6,1.6
57,5,2.6,1.2,1.8
58,4,2.8,1.8,2.2
59,5,2.6,1.6,1.6
60,5,2.6,1.2,2.2
