0,1,10,3,7
1,1,10,3,4.8
2,1,10,5,3.4
3,1,10,7,3.4
4,1,10,6,4.2
5,1,10,6,4.2
6,1,10,5,4
7,1,10,4,3.6
8,1,10,6,3.2
9,3,4.4,2.2,3.2
10,2,5.2,3,3.6
11,2,5.2,3,3.6
12,2,5.2,3.6,3.2
13,1,10,4,4
14,1,10,5,4
15,1,10,6,3.8
16,1,10,5,4.6
17,3,4.4,2.2,3
18,2,5.2,3,3.6
19,2,5.2,2.4,4
20,2,5.2,3,3.2
21,2,5.2,2.6,3.8
22,2,5.2,2,3.6
23,2,5.2,2,3.8
24,2,5.2,2,3.8
25,2,5.2,3.6,3
26,2,5.2,2.6,3.8
27,2,5.2,2,3.8
28,2,5.2,3.2,3
29,2,5.2,2.6,3.2
30,2,5.2,3.2,3.2
32,3,3.6,1.8,3.2
33,3,3.6,1.8,3
34,3,3.6,2.2,3
35,3,3.6,1.8,2.8
36,2,5.2,3.8,3
37,2,5.2,3.2,3.2
38,2,5.2,2.6,3.6
39,2,5.2,2.6,3.4
40,2,5.2,3,3.2
41,2,5.2,2.6,3.4
42,1,10,6,3.8
43,1,10,5,4.8
44,1,10,5,4.2
45,1,10,5,4.2
46,1,10,5,4.2
47,1,10,6,4
48,1,10,5,4.8
49,1,10,6,4.8
50,1,10,4,4
51,1,10,4,4.4
52,1,10,6,3.6
53,1,10,4,4.4
54,1,10,6,3.8
55,1,10,5,4.2
56,1,10,4,5
57,1,10,5,4.8
58,1,10,4,4.6
59,1,10,7,4.2
60,2,5.8,2.4,3.6
