0,1,10,3,5.6
1,1,10,4,5
2,1,10,5,4
3,2,5.2,3,3.4
4,1,10,5,3.8
5,1,10,7,3.4
6,1,10,6,3.6
7,1,10,4,4.4
8,1,10,4,4.2
9,1,10,4,4
10,1,10,5,4.2
11,1,10,4,4.4
12,1,10,5,4.4
13,1,10,4,4.2
14,1,10,4,4.4
15,1,10,4,4.6
16,1,10,4,4.6
17,1,10,4,4.2
18,1,10,5,4.4
19,2,6.8,3.4,3.6
20,2,6.8,3.4,3.6
21,2,6.8,3.4,3.6
22,2,6.8,2.6,4.2
23,2,6.8,2.6,4.2
24,2,6.8,3.4,4.2
25,2,6.8,3.4,3.8
26,2,6.8,2.6,4
27,2,6.8,3.4,4
28,2,6.8,4.2,4.2
29,2,6.8,4.2,3.4
30,2,6.8,3.4,3.4
32,2,6.8,4.2,3.6
33,2,6.8,4.2,3.6
34,2,6.8,3.4,3.8
35,2,6.8,5,3
36,3,4.4,2.8,2.6
37,2,6.8,4.2,3.4
38,2,6.8,4.2,3.4
39,2,6.8,4.2,3.4
40,2,6.8,2.6,3.8
41,3,4.4,2.2,3
42,3,4.4,2.8,2.6
43,3,4.4,2.8,2.6
44,3,4.4,2.2,3.2
45,3,4.4,2.2,3.4
46,3,4.4,1.6,3.4
47,3,4.4,2.8,2.8
48,3,4.4,2.2,3.4
49,3,4.4,2.2,3.2
50,3,4.4,2.2,3.4
51,3,4.4,2.8,2.6
52,2,6.8,5,3
53,2,6.8,5,3.2
54,2,6.8,4.2,3.4
55,2,6.8,3.4,3.6
56,2,6.8,2.6,3.8
57,2,6.8,2.6,3.8
58,2,6.8,2.6,4.2
59,2,6.8,2.6,4.4
60,2,6.8,2.6,4.2
