0,1,10,2,7
1,1,10,3,6.2
2,1,10,6,5.2
3,1,10,5,4.6
4,1,10,6,4.4
5,1,10,6,4.4
6,1,10,5,5
7,1,10,6,4.4
8,1,10,5,4.2
9,1,10,8,3.6
10,1,10,5,4.2
11,1,10,6,3.8
12,2,6.8,3.4,4.2
13,1,10,5,5
14,1,10,5,4.6
15,1,10,5,4
16,2,8.2,6.3,3.8
17,1,10,7,3.6
18,1,10,6,3.2
19,1,10,6,3.4
20,2,6.8,4.2,3
21,2,6.8,4.2,3.4
22,2,6.8,4.2,3.8
23,1,10,7,3.6
24,2,6.8,4.2,3.2
25,2,8.2,5.4,3.4
26,2,8.2,5.4,3.4
27,2,8.2,5.4,3.2
28,2,8.2,6.3,3.2
29,1,10,6,3.4
30,1,10,6,3.4
32,1,10,6,3.6
33,1,10,6,3.6
34,1,10,6,4
35,2,8.2,4.5,3.8
36,2,8.2,4.5,4.4
37,2,8.2,3.6,4.6
38,2,8.2,4.5,4.2
39,1,10,6,4.6
40,1,10,7,4
41,1,10,7,4.2
42,2,5.8,3.4,3.6
43,2,5.8,4.1,3.2
44,2,5.8,4.1,3.2
45,2,5.8,4.1,3.2
46,2,5.8,4.1,3.2
47,3,3.8,2.8,2.8
48,3,3.8,2.8,2.8
49,3,3.8,2.8,2.8
50,3,3.8,2.8,2.8
51,3,3.8,2.8,2.8
52,3,5.4,3.7,2.6
53,2,5.8,4.1,3.2
54,2,5.8,4.1,2.8
55,3,3.8,2.5,2.8
56,2,5.8,3.8,2.8
57,3,5.4,3.7,2.6
58,2,5.8,4.1,3
59,3,3.8,2.3,2.8
60,2,5.8,3.4,3.2
