0,1,10,2,10.8
1,1,10,2,9.4
2,1,10,3,7.4
3,1,10,4,6.2
4,1,10,3,6
5,1,10,6,4.8
6,1,10,3,5
7,2,8.2,3.6,4.6
8,1,10,4,5.4
9,1,10,4,5
10,1,10,4,4.2
11,1,10,4,5
12,1,10,6,3.8
13,1,10,4,5.2
14,2,8.2,3.6,4.2
15,2,8.2,3.6,3.8
16,2,8.2,3.6,5
17,2,8.2,3.6,4
18,2,8.2,3.6,4.6
19,2,8.2,5.4,3.4
20,2,8.2,5.4,3.8
21,2,8.2,3.6,4.6
22,2,8.2,3.6,4.4
23,2,8.2,3.6,3.8
24,2,8.2,3.6,4.4
25,2,5.2,3,3.6
26,1,10,5,4.4
27,1,10,5,3.8
28,1,10,7,4.2
29,2,8.2,5.4,4.2
30,1,10,5,5
32,1,10,7,4
33,1,10,7,4.4
34,1,10,7,4.6
35,1,10,7,4
36,3,4.4,2.2,3.6
37,2,5.2,3,3.2
38,2,5.2,3,4
39,2,5.2,2.4,4.4
40,4,4.2,2,3
41,4,4.2,2,3.2
42,3,6.6,4,3
43,2,8.2,4.5,3.8
44,3,6.6,3.2,3
45,3,4.6,2.4,3.8
46,3,4.6,2.4,3.6
47,3,4.6,2.4,3
48,4,4.2,2,3
49,3,5.4,3,3.6
50,3,5.4,3,3.2
51,3,5.4,3,3.8
52,3,5.4,2.3,3.8
53,3,5.4,2.3,3.8
54,3,5.4,2.3,3.6
55,3,5.4,3,3.4
56,3,5.4,2.3,3.6
57,3,5.4,3,3.4
58,3,5.4,2.3,4.2
59,3,5.4,2.3,4
60,2,8.2,4.5,4.2
