0,1,10,2,12.4
1,1,10,3,8.4
2,1,10,3,8.8
3,1,10,3,7.4
4,1,10,4,6.8
5,1,10,5,5.6
6,1,10,3,6.4
7,1,10,4,6
8,2,6.8,4.2,3.6
9,1,10,6,4.2
10,1,10,5,4.2
11,1,10,5,4.8
12,2,6.8,4.2,3.8
13,1,10,6,4.2
14,1,10,5,4.8
15,1,10,5,5
16,1,10,4,4.8
17,1,10,5,4.6
18,1,10,4,4.4
19,1,10,5,4.4
20,1,10,5,3.6
21,2,5.2,2.6,3.8
22,1,10,4,4
23,1,10,4,4.8
24,1,10,5,4.2
25,3,4.6,3,2.8
26,3,4.6,2.1,3
27,3,4.6,3,3.2
28,3,4.6,2.4,3.6
29,4,4.2,2,2.8
30,4,4.2,2.6,2.4
32,3,4.6,2.4,3.2
33,3,4.6,2.4,3
34,3,4.6,2.4,3
35,2,8.2,5.4,2.8
36,2,8.2,5.4,3.6
37,2,8.2,4.5,3.6
38,2,8.2,4.5,3.6
39,2,8.2,3.6,3.8
40,2,8.2,4.5,3.8
41,2,8.2,4.5,3.8
42,2,8.2,3.6,3.6
43,2,8.2,3.6,4.2
44,2,8.2,4.5,3.4
45,2,8.2,4.5,3.4
46,3,6.6,4.8,2.6
47,2,8.2,4.5,3.4
48,2,8.2,4.5,3.6
49,2,8.2,3.6,3.4
50,2,8.2,2.7,4.6
51,3,6.6,2.4,4.2
52,3,6.6,3.2,3.8
53,3,6.6,3.2,2.8
54,4,5.2,2.1,2.8
55,5,4,1.8,2.8
56,5,4,1.8,2.6
57,5,4,1.8,2.6
58,4,5.2,2.8,2.4
59,4,5.2,2.1,3
60,5,4,1.8,2.4
