0,1,10,2,11.8
1,1,10,3,8.8
2,1,10,3,7.8
3,1,10,3,5.4
4,1,10,3,5.8
5,2,8.2,3.6,4
6,2,8.2,2.7,5.4
7,2,8.2,3.6,4.4
8,3,5.4,3,3.4
9,3,5.4,3,3
10,3,6.6,4,3.6
11,4,4.2,2.6,2.8
12,4,4.2,2,3
13,4,5.2,3.5,2.6
14,3,6.6,4,3.4
15,3,5.4,2.3,3
16,4,4.2,2,2.8
17,5,3.2,1.2,2.4
18,3,6.6,4,3
19,4,5.2,2.8,2.4
20,4,5.2,4.2,1.8
21,4,4.2,2,3.2
22,3,6.6,3.2,3
23,3,6.6,3.2,3.4
24,3,6.6,3.2,3.4
25,3,6.6,3.2,2.8
26,3,6.6,3.2,3.4
27,3,6.6,3.2,3
28,3,6.6,3.2,3.8
29,3,6.6,3.2,3.4
30,3,6.6,3.2,3.2
32,3,6.6,3.2,4
33,3,6.6,3.2,3.6
34,3,6.6,3.2,4.4
35,3,6.6,3.2,4.4
36,3,6.6,3.2,4
37,3,6.6,3.2,4.2
38,3,6.6,3.2,3.8
39,3,6.6,3.2,4
40,3,6.6,3.2,3.8
41,3,6.6,3.2,3.8
42,3,6.6,3.2,3.8
43,3,6.6,2.4,4.2
44,3,6.6,3.2,4.2
45,3,6.6,2.4,4.6
46,3,6.6,2.4,4.6
47,3,6.6,4,4.4
48,3,6.6,3.2,4.2
49,3,6.6,2.4,4
50,3,6.6,3.2,4.2
51,3,6.6,2.4,4.6
52,3,6.6,3.2,3.8
53,3,6.6,2.4,5.2
54,3,6.6,3.2,4.2
55,4,5.2,2.1,4
56,3,6.6,2.4,5.2
57,3,6.6,2.4,4.4
58,3,6.6,2.4,3.8
59,3,6.6,3.2,3.2
60,3,6.6,4,3.4
