0,1,10,2,8.2
1,1,10,5,5
2,1,10,5,4.2
3,2,5.8,3.4,3.4
4,2,5.8,3.4,3.4
5,3,5.4,2.3,3.6
6,3,5.4,2.3,3.2
7,3,5.4,3,3
8,3,5.4,3,3
9,3,5.4,3,3.4
10,3,5.4,3,3.4
11,3,5.4,3,3.6
12,3,5.4,3,3.2
13,5,2.6,1.2,2
14,3,5.4,3.7,2.8
15,2,6.8,5,3
16,2,6.8,5,3.4
17,2,6.8,5.8,3.2
18,3,3.8,2.8,2.8
19,4,3,1.7,2.4
20,5,2.2,1.2,1.8
21,3,5.4,4.4,2.6
22,3,5.4,4.4,2.6
23,3,5.4,4.4,2.6
24,2,6.8,5.8,3.2
25,3,5.4,4.4,2.8
26,4,4.2,3.2,2.2
27,3,5.4,4.4,2.6
28,3,5.4,4.4,2.8
29,3,5.4,4.4,2.6
30,3,5.4,3.7,2.8
32,3,5.4,3.7,3.2
33,3,5.4,4.4,2.8
34,3,5.4,4.4,2.4
35,5,2.6,1.6,2
36,3,3.4,2.1,3
37,3,3.4,2.1,2.8
38,3,3.4,1.4,3.2
39,4,3,1.6,2.4
40,3,3.4,1.7,3.2
41,3,3.4,2.1,2.6
42,4,2.6,1.3,2.2
43,3,3.4,2.1,2.8
44,3,3.4,2.4,2.6
45,4,3,2,2.4
46,4,3,1.6,2.4
47,4,3,1.6,2.6
48,4,3,1.6,2.4
49,4,3,1.6,2.6
50,4,3,1.6,2.4
51,4,3,1.6,2.4
52,4,3,1.6,2.4
53,4,3,1.6,2.6
54,3,5.4,3.7,3
55,3,5.4,3.7,3
56,3,5.4,3.7,2.6
57,5,2.6,1.6,2
58,4,3.4,2.4,2.2
59,3,5.4,4.4,2.6
60,3,5.4,3.7,3
