0,1,10,3,8.2
1,1,10,3,7
2,1,10,4,5.8
3,2,5,2,4.8
4,1,10,3,4.6
5,1,10,4,4.4
6,1,10,3,4.4
7,2,8.2,3.6,3.8
8,1,10,4,4.2
9,1,10,4,4.8
10,1,10,4,4.8
11,1,10,4,5
12,1,10,3,5.4
13,2,8.2,2.7,4.2
14,1,10,4,5
15,1,10,3,5.4
16,1,10,4,4.8
17,1,10,4,4.8
18,1,10,3,5.2
19,1,10,3,5.4
20,2,8.2,2.7,5.6
21,2,8.2,2.7,4.6
22,2,8.2,2.7,4.6
23,2,8.2,2.7,4.6
24,2,8.2,3.6,5
25,2,8.2,3.6,4
26,2,8.2,2.7,4.2
27,2,8.2,3.6,5
28,2,8.2,3.6,4.6
29,2,8.2,3.6,4
30,2,8.2,3.6,4.6
32,2,8.2,4.5,3.8
33,2,8.2,3.6,3.8
34,2,8.2,3.6,4.4
35,2,8.2,3.6,5.2
36,2,8.2,3.6,4
37,2,8.2,3.6,3.8
38,2,8.2,2.7,4
39,2,8.2,3.6,4.4
40,2,8.2,3.6,4.2
41,2,8.2,3.6,4.2
42,2,8.2,3.6,4
43,2,8.2,4.5,3.6
44,3,5.4,2.3,3.8
45,3,5.4,2.3,3.8
46,3,5.4,2.3,3.4
47,2,8.2,4.5,3.6
48,3,6.6,4,3
49,3,6.6,3.2,2.8
50,3,6.6,3.2,2.8
51,3,6.6,3.2,3.4
52,3,6.6,3.2,3.2
53,3,6.6,3.2,3.6
54,3,6.6,3.2,3.8
55,3,6.6,2.4,3.4
56,3,6.6,2.4,3.8
57,3,6.6,3.2,3.6
58,3,6.6,2.4,3.2
59,3,6.6,2.4,3.4
60,3,6.6,2.4,3.8
