0,2,8.2,1.8,7.6
1,1,10,4,6.4
2,1,10,4,6
3,2,8.2,2.7,4.8
4,2,8.2,4.5,3.8
5,2,8.2,4.5,4
6,3,5.4,3.7,2.6
7,3,5.4,3.7,2.8
8,2,6.8,5,3.4
9,2,6.8,5,3.2
10,2,6.8,5,3.6
11,3,5.4,3.7,3
12,3,5.4,3.7,3
13,3,5.4,3.7,2.4
14,3,5.4,3.7,3
15,4,3.4,1.9,2.4
16,4,3.4,1.9,2.2
17,4,3.4,1.9,2.2
18,3,4.4,2.8,2.8
19,3,4.4,2.8,3.2
20,3,4.4,2.8,2.6
21,4,4.2,2.6,1.8
22,3,4.4,2.8,2.6
23,2,6.8,5,3.6
24,2,6.8,5,3.4
25,2,6.8,5,3.4
26,3,3.8,2.3,2.8
27,2,6.8,5,2.4
28,3,5.4,3.7,3.2
29,2,6.8,4.2,3.8
30,2,6.8,3.4,4.2
32,2,6.8,3.4,4
33,2,6.8,3.4,3.8
34,3,5.4,3,3.6
35,2,6.8,2.6,4.2
36,2,6.8,4.2,3
37,2,6.8,4.2,3.4
38,2,6.8,3.4,4
39,2,6.8,3.4,3.8
40,2,6.8,5.8,3
41,2,6.8,4.2,3.4
42,3,4.4,2.8,3
43,2,6.8,2.6,4.2
44,2,6.8,2.6,4.2
45,2,6.8,2.6,4.6
46,2,6.8,2.6,4.2
47,2,6.8,2.6,3.8
48,2,6.8,2.6,4.6
49,2,6.8,2.6,4.6
50,3,5.4,1.6,4
51,2,6.8,3.4,4
52,2,6.8,3.4,3.6
53,2,6.8,4.2,3.6
54,2,6.8,3.4,4.2
55,2,6.8,3.4,3.8
56,2,6.8,3.4,4.4
57,2,6.8,3.4,4.6
58,2,6.8,3.4,5.2
59,2,6.8,3.4,5
60,2,6.8,3.4,4.2
