0,1,10,2,10.8
1,1,10,5,5.4
2,1,10,3,5.8
3,1,10,4,5.4
4,1,10,5,4.6
5,1,10,4,5.2
6,2,6.8,2.6,4.4
7,2,6.8,4.2,4.2
8,2,6.8,4.2,4
9,2,6.8,4.2,4.2
10,2,6.8,4.2,4
11,2,6.8,4.2,4
12,2,6.8,4.2,4.2
13,2,6.8,4.2,3.8
14,2,6.8,4.2,3.8
15,2,6.8,4.2,3.8
16,3,3.8,1.8,3.8
17,2,6.8,4.2,4
18,2,6.8,3.4,4.4
19,2,6.8,2.6,4.2
20,3,5.4,2.3,4.2
21,2,6.8,2.6,5.4
22,2,6.8,2.6,5.4
23,2,6.8,2.6,5.2
24,2,6.8,2.6,4.8
25,2,6.8,2.6,4.2
26,2,6.8,2.6,4.8
27,2,6.8,2.6,4.4
28,2,6.8,2.6,4.6
29,2,6.8,2.6,4.6
30,2,6.8,2.6,4
32,1,10,5,4.8
33,1,10,5,5.2
34,1,10,4,5.2
35,1,10,4,5.6
36,1,10,4,5.2
37,1,10,4,5
38,1,10,5,5
39,1,10,4,5
40,1,10,4,5.4
41,1,10,4,5.2
42,2,8.2,2.7,5.2
43,1,10,3,5.8
44,1,10,4,5.6
45,2,6.8,2.6,4.6
46,2,6.8,2.6,4.8
47,2,6.8,2.6,5.2
48,2,6.8,2.6,5.2
49,2,6.8,2.6,5.2
50,2,6.8,2.6,4.6
51,2,6.8,2.6,4.2
52,2,6.8,3.4,4
53,3,5.4,2.3,3.4
54,2,6.8,3.4,3.8
55,2,6.8,3.4,4
56,2,6.8,3.4,3.4
57,2,6.8,3.4,4.2
58,2,6.8,3.4,4.4
59,2,6.8,2.6,4.2
60,2,6.8,2.6,4.6
