0,1,10,3,8.8
1,1,10,3,7
2,1,10,4,4.6
3,2,6.8,2.6,4
4,2,6.8,3.4,3.6
5,2,6.8,4.2,3.8
6,2,6.8,3.4,3.8
7,1,10,5,4
8,1,10,6,3.4
9,2,6.8,3.4,3.2
10,2,6.8,4.2,3
11,2,6.8,4.2,3
12,2,6.8,4.2,3.2
13,2,6.8,4.2,2.8
14,2,6.8,4.2,3
15,2,6.8,3.4,3.4
16,2,6.8,3.4,3
17,2,6.8,3.4,4
18,2,6.8,4.2,3
19,2,6.8,5,3
20,2,6.8,5,3.2
21,3,3.8,2.8,2.4
22,3,5.4,3.7,3
23,2,6.8,5,2.8
24,2,6.8,5,3
25,2,6.8,4.2,3.2
26,2,6.8,2.6,4.2
27,2,6.8,2.6,4.4
28,2,6.8,4.2,3.4
29,3,3.8,1.5,3.6
30,3,3.8,1.5,3
32,4,3,1.3,2.6
33,3,3.8,1.5,3.4
34,3,3.8,1.5,3.6
35,3,3.8,1.5,3.6
36,3,3.8,1.5,3.2
37,4,3.4,1.4,3
38,3,3.8,1.8,3
39,3,3.8,1.8,3.4
40,4,3,1.6,2.4
41,4,3,1.6,2.4
42,5,2.6,1.2,2.2
43,4,3,1.6,2.4
44,4,3,1.6,2
45,4,3,1.6,2.6
46,4,3,1.6,2.2
47,4,3,1.6,2.4
48,4,3,1.6,2.4
49,4,3,1.6,2.8
50,4,3,1.6,2.8
51,4,3,1.6,2.4
52,4,3,1.6,2.6
53,4,3,1.6,2.6
54,4,3,1.6,2.6
55,5,2.4,1.1,2.2
56,4,3,1.6,2.6
57,4,3,1.6,2.6
58,4,3,1.6,2.6
59,4,3,1.6,2.2
60,4,3,1.6,2.6
