0,2,8.2,1.8,7.2
1,1,10,3,8
2,1,10,3,6.2
3,1,10,4,6.6
4,1,10,4,4.2
5,1,10,4,3.6
6,1,10,5,4
7,1,10,5,3.6
8,1,10,5,3.6
9,1,10,4,3.8
10,2,8.2,3.6,3
11,2,8.2,5.4,3
12,3,6.6,4,2.6
13,3,6.6,3.2,2.8
14,3,6.6,3.2,2.6
15,4,5.2,2.8,2.8
16,4,5.2,2.8,2.8
17,5,3.2,1.7,2
18,3,6.6,3.2,3.2
19,3,6.6,3.2,3.2
20,4,5.2,2.8,2.4
21,3,6.6,3.2,2.8
22,3,6.6,3.2,3.2
23,3,6.6,3.2,3
24,3,6.6,3.2,3.2
25,4,4.2,3.2,2.4
26,4,4.2,2.6,2.4
27,4,4.2,2,2.6
28,4,4.2,2,2.4
29,5,2.6,1.6,1.8
30,4,4.2,2.6,2.4
32,4,4.2,2.6,2.2
33,4,4.2,2.6,2.4
34,5,2.6,1.6,2
35,4,4.2,2.6,2.4
36,4,4.2,2,2.4
37,4,4.2,2,2.4
38,4,4.2,2.6,2.2
39,5,2.6,1.6,1.8
40,5,2.6,1.6,2
41,5,2.6,1.6,1.8
42,4,2.8,1.8,2.4
43,4,2.8,1.8,2.4
44,3,4.4,2.2,3.2
45,4,4.2,2,2.2
46,4,3.4,1.4,2.6
47,3,4.4,2.2,3
48,3,4.4,2.8,3
49,4,2.8,1.4,2.4
50,3,4.4,2.8,2.8
51,3,4.4,2.8,2.4
52,3,4.4,2.8,2.6
53,3,4.4,2.8,2.6
54,3,4.4,2.8,2.8
55,3,4.4,2.8,2.8
56,4,4.2,2.6,1.8
57,5,2.2,1.2,2
58,5,2.2,1.2,1.8
59,5,2.2,1.2,2
60,5,2.2,1.2,1.8
