0,1,10,2,11.2
1,1,10,3,6.6
2,1,10,3,6.2
3,1,10,3,6
4,1,10,3,6
5,1,10,4,5.2
6,1,10,4,5.4
7,1,10,4,4.8
8,1,10,4,4
9,3,6.6,4,3.2
10,3,6.6,4,3.2
11,3,6.6,3.2,3.6
12,3,6.6,2.4,4
13,2,6.8,2.6,4
14,2,6.8,2.6,4.4
15,2,6.8,2.6,4
16,2,6.8,2.6,4.4
17,2,6.8,2.6,3.2
18,2,6.8,3.4,3.8
19,2,6.8,2.6,4.4
20,2,6.8,3.4,3.2
21,3,5.4,2.3,3.2
22,3,5.4,2.3,2.8
23,3,5.4,2.3,4
24,4,5.2,3.5,2.8
25,4,5.2,2.1,3.2
26,4,5.2,2.1,2.8
27,4,5.2,2.1,3.2
28,4,5.2,2.1,3.6
29,3,6.6,3.2,3.6
30,3,6.6,3.2,3.2
32,3,6.6,3.2,3.6
33,3,6.6,3.2,4.4
34,3,6.6,3.2,3.8
35,3,6.6,3.2,4.2
36,3,6.6,4,3
37,3,6.6,3.2,3.8
38,3,6.6,3.2,3.6
39,3,6.6,3.2,3.4
40,3,6.6,3.2,3.8
41,3,6.6,4,3.4
42,3,6.6,2.4,4.2
43,3,6.6,2.4,4.4
44,3,6.6,2.4,4
45,3,6.6,2.4,4
46,3,6.6,2.4,3.6
47,2,6.8,2.6,4.8
48,2,6.8,2.6,4
49,2,6.8,3.4,4.2
50,2,6.8,3.4,3.6
51,2,6.8,2.6,5
52,3,6.6,4,3.2
53,2,6.8,3.4,4
54,2,6.8,3.4,4.4
55,3,6.6,3.2,3.2
56,3,6.6,2.4,3.4
57,3,6.6,2.4,4.4
58,2,8.2,4.5,4.2
59,2,8.2,3.6,4.4
60,2,8.2,3.6,4.8
