0,2,8.2,1.8,9
1,1,10,3,9.6
2,1,10,3,8.4
3,1,10,3,7.2
4,1,10,4,7
5,1,10,4,6.2
6,1,10,4,6.4
7,1,10,4,5
8,1,10,4,5.2
9,1,10,5,4.8
10,1,10,4,4.8
11,1,10,4,4.2
12,2,8.2,3.6,3.4
13,1,10,3,6.6
14,1,10,4,6.4
15,1,10,4,5.4
16,1,10,3,5.4
17,1,10,3,5.8
18,2,8.2,2.7,5.6
19,2,8.2,3.6,5.6
20,2,8.2,3.6,5
21,2,8.2,2.7,4.6
22,2,8.2,2.7,4.8
23,2,8.2,3.6,5
24,2,8.2,3.6,4
25,2,8.2,4.5,4
26,3,6.6,3.2,3.6
27,3,6.6,2.4,3.6
28,3,6.6,2.4,3.4
29,3,6.6,2.4,4
30,3,6.6,3.2,3
32,3,6.6,2.4,4.4
33,4,5.2,2.1,3
34,4,5.2,1.4,3.8
35,4,5.2,2.1,3.6
36,4,5.2,2.1,3.4
37,4,5.2,2.1,4.2
38,4,5.2,2.1,4.2
39,4,5.2,2.1,3.8
40,4,5.2,2.8,3.4
41,4,5.2,2.1,3.6
42,4,5.2,2.1,3.6
43,4,5.2,2.1,4.4
44,4,5.2,2.8,3.2
45,4,5.2,2.1,3.4
46,3,6.6,4,3.4
47,3,6.6,3.2,4.6
48,3,6.6,3.2,3.8
49,2,8.2,3.6,4
50,3,6.6,3.2,3
51,3,6.6,3.2,3.8
52,2,8.2,3.6,3.8
53,2,8.2,3.6,4
54,2,8.2,3.6,4.2
55,2,8.2,3.6,4
56,2,8.2,4.5,4.6
57,2,8.2,2.7,5.2
58,3,6.6,3.2,3.8
59,3,6.6,2.4,4.2
60,3,6.6,2.4,3.8
