0,1,10,3,10.6
1,1,10,3,7.6
2,1,10,4,7.4
3,2,6.8,1.8,6
4,1,10,4,5.4
5,1,10,4,5.4
6,1,10,4,5.8
7,1,10,5,4.6
8,1,10,4,4.8
9,1,10,5,5.4
10,2,8.2,2.7,5
11,2,8.2,2.7,4.8
12,2,8.2,3.6,4.4
13,2,8.2,2.7,5.6
14,2,8.2,3.6,3.8
15,2,8.2,2.7,5.2
16,2,8.2,3.6,4.4
17,2,8.2,2.7,5.2
18,2,8.2,4.5,4.4
19,2,8.2,2.7,5
20,2,8.2,2.7,5
21,2,8.2,3.6,4.2
22,2,8.2,2.7,5.2
23,2,8.2,2.7,4.2
24,3,6.6,2.4,4.4
25,2,8.2,4.5,4
26,2,8.2,2.7,5
27,2,8.2,2.7,4.8
28,2,8.2,2.7,5
29,2,8.2,2.7,5
30,2,8.2,2.7,4.4
32,2,8.2,3.6,4.2
33,2,8.2,3.6,4.4
34,2,8.2,3.6,4.6
35,2,8.2,3.6,4.2
36,2,8.2,3.6,4.4
37,2,8.2,3.6,4.6
38,2,8.2,3.6,4.2
39,2,8.2,3.6,4
40,2,8.2,4.5,4
41,2,8.2,2.7,4.4
42,2,8.2,2.7,5
43,2,8.2,2.7,5.6
44,2,8.2,3.6,4.4
45,2,8.2,3.6,4.4
46,2,8.2,3.6,4
47,2,8.2,2.7,4.8
48,2,8.2,2.7,5.2
49,2,8.2,2.7,5.4
50,2,8.2,3.6,5
51,2,8.2,2.7,4.6
52,2,8.2,2.7,4.8
53,2,8.2,3.6,4.2
54,2,8.2,3.6,5
55,2,8.2,3.6,5
56,2,8.2,2.7,4.8
57,2,8.2,2.7,5.6
58,2,8.2,3.6,4.2
59,2,8.2,3.6,5
60,2,8.2,2.7,5
