0,1,10,3,8.8
1,1,10,3,5.8
2,1,10,3,5.2
3,1,10,4,4.6
4,1,10,4,4.8
5,1,10,5,4.2
6,1,10,5,4.8
7,2,8.2,3.6,3.6
8,1,10,3,5
9,1,10,4,5.2
10,1,10,4,5.4
11,1,10,4,4.8
12,1,10,4,4.8
13,1,10,4,4.8
14,1,10,4,4.4
15,1,10,3,5.4
16,1,10,4,5
17,1,10,4,5
18,1,10,4,5.6
19,1,10,3,5.2
20,1,10,4,4.8
21,1,10,5,3.2
22,1,10,7,3.6
23,1,10,5,4
24,1,10,6,4
25,1,10,4,4.2
26,1,10,4,5.2
27,1,10,4,5
28,1,10,4,4.6
29,1,10,4,4.6
30,2,6.8,3.4,4
32,2,6.8,2.6,4.4
33,1,10,4,5.2
34,1,10,4,5.4
35,1,10,4,5.6
36,1,10,6,4.2
37,1,10,4,5.2
38,1,10,4,4.8
39,1,10,4,5.2
40,1,10,4,4.8
41,1,10,4,5
42,1,10,4,4.4
43,1,10,4,5.4
44,1,10,4,5.2
45,1,10,6,4.4
46,1,10,4,4.8
47,1,10,5,4.2
48,2,6.8,3.4,3
49,2,6.8,4.2,3.2
50,2,6.8,4.2,3.2
51,2,6.8,4.2,3.4
52,1,10,7,3.8
53,1,10,7,3.6
54,1,10,7,3
55,1,10,6,3
56,3,3.8,2,3
57,2,5,3,3.2
58,1,10,5,4.2
59,1,10,7,3.6
60,2,5,3.5,3
