0,2,8.2,2.7,4.6
1,1,10,3,5.4
2,1,10,4,5
3,1,10,5,3.6
4,1,10,4,4.4
5,1,10,4,4.4
6,1,10,6,4
7,3,4.2,2.3,3
8,3,4.2,2.3,3
9,3,4.2,2.3,2.6
10,3,4.2,2.3,2.6
11,3,4.2,2.3,2.6
12,2,5,3,3.2
13,2,5,4,3
14,3,4.2,2.7,2.4
15,3,4.2,2.2,3.2
16,2,5.2,3,2.8
17,3,4.2,2.7,2.6
18,3,4.2,3.2,2.4
19,2,5.2,3,3.4
20,3,4.4,2.2,3.2
21,4,3.4,1.4,2.6
22,2,6.8,3.4,3.4
23,2,6.8,3.4,3.6
24,1,10,6,3.6
25,1,10,5,4.2
26,1,10,4,3.8
27,1,10,5,4
28,2,6.8,4.2,3
29,2,6.8,4.2,3.2
30,3,4.4,2.8,2.8
32,3,4.4,2.8,3
33,3,4.4,2.8,2.8
34,3,4.4,3.4,2.6
35,3,4.4,2.8,2.4
36,3,4.4,3.4,2.6
37,3,4.4,2.8,2.6
38,3,4.4,2.8,3
39,3,4.4,2.8,2.8
40,3,4.4,2.8,2.8
41,3,4.4,2.8,3
42,3,4.4,2.8,2.8
43,4,2.8,1.4,2.4
44,3,4.4,2.8,2.6
45,3,4.4,2.2,3
46,3,4.4,2.8,2.8
47,3,4.4,2.8,2.8
48,3,4.4,2.8,2.4
49,4,2.8,1.4,2.6
50,3,4.4,2.8,3
51,3,4.4,2.8,3
52,3,4.4,2.8,2.8
53,4,2.8,1.4,2.4
54,3,4.4,2.2,2.8
55,4,2.8,1.4,2.4
56,4,2.8,1.4,2.4
57,4,2.8,1.4,1.8
58,4,2.8,1.4,2.4
59,4,2.8,1.4,2.4
60,4,2.8,1.8,2.4
