0,2,8.2,1.8,7.2
1,1,10,3,4.6
2,1,10,4,4.4
3,1,10,4,5.2
4,1,10,6,3.8
5,2,5.8,3.4,3.8
6,1,10,4,4.8
7,1,10,4,5.4
8,1,10,5,4.2
9,2,8.2,3.6,3.6
10,2,8.2,3.6,4
11,1,10,4,5.4
12,1,10,4,5
13,1,10,5,4.8
14,1,10,4,4.6
15,1,10,5,4.8
16,1,10,5,3.8
17,2,8.2,3.6,4.2
18,1,10,4,4.4
19,1,10,4,4.4
20,1,10,4,4.4
21,1,10,3,5
22,1,10,4,3.8
23,1,10,5,4.2
24,1,10,5,4
25,3,5.4,2.3,3.2
26,1,10,5,3.2
27,1,10,4,4
28,1,10,4,4.6
29,2,8.2,3.6,3.8
30,2,8.2,2.7,3.8
32,2,8.2,4.5,3.8
33,1,10,4,5
34,2,8.2,2.7,4
35,2,8.2,2.7,3.6
36,2,6.8,3.4,3.6
37,1,10,4,3.8
38,1,10,4,4.4
39,2,8.2,3.6,4
40,2,8.2,3.6,3.2
41,2,8.2,3.6,3.4
42,1,10,4,4.4
43,1,10,3,5.2
44,1,10,4,5.2
45,1,10,4,5
46,1,10,4,5.2
47,1,10,3,5.6
48,1,10,4,5
49,1,10,4,5.6
50,1,10,4,4.6
51,1,10,4,4.4
52,1,10,4,4.2
53,1,10,5,4.4
54,1,10,4,4.8
55,1,10,5,3.6
56,1,10,5,4.2
57,1,10,5,4.4
58,2,6.8,2.6,3.8
59,1,10,5,4.2
60,1,10,5,4.8
