0,2,8.2,2.7,5
1,1,10,2,6.2
2,1,10,4,5
3,1,10,4,4.8
4,1,10,4,4.6
5,1,10,5,4.4
6,1,10,4,4.6
7,2,6.8,3.4,3.8
8,2,6.8,2.6,3.8
9,2,6.8,3.4,3.8
10,2,6.8,3.4,3.6
11,3,3.8,2,3.2
12,2,6.8,3.4,4.2
13,2,6.8,4.2,3.4
14,1,10,5,4
15,1,10,5,4.2
16,1,10,5,4.2
17,1,10,4,4.6
18,2,6.8,2.6,3.6
19,1,10,5,4.2
20,1,10,7,4
21,1,10,5,4.6
22,2,6.8,2.6,4
23,1,10,5,4.4
24,1,10,6,4.4
25,1,10,5,5
26,2,6.8,2.6,4.4
27,1,10,4,5
28,1,10,5,5
29,1,10,5,4.8
30,1,10,5,4.4
32,1,10,5,4.4
33,1,10,5,5
34,1,10,6,4.4
35,1,10,5,4.6
36,1,10,6,4.2
37,1,10,5,4
38,1,10,5,4.6
39,2,6.8,2.6,4
40,1,10,4,4.2
41,1,10,5,4.2
42,1,10,5,4.2
43,1,10,6,3.8
44,1,10,8,3.6
45,3,3.6,1.8,2.6
46,2,5.2,3.8,3.2
47,2,5.2,3.8,3
48,3,4.4,3.4,2.4
49,2,5.2,3.8,3
50,2,5.2,3.8,3
51,3,3.6,1.8,3
52,2,5.2,3.2,3.2
53,3,4.4,2.8,2.8
54,3,4.4,3.4,2.4
55,4,2.8,1.8,2.4
56,4,2.8,1.8,2.2
57,4,2.8,1.4,2.6
58,4,2.8,1.4,2.6
59,4,2.8,1.4,2.6
60,4,2.8,1.4,2.4
