0,2,8.2,1.8,9.8
1,1,10,3,7.2
2,1,10,4,5
3,1,10,4,4.6
4,1,10,4,4.2
5,1,10,5,4.4
6,2,6.8,3.4,4.4
7,2,6.8,3.4,3.8
8,2,6.8,4.2,4
9,3,6.6,3.2,3.8
10,2,6.8,2.6,4.6
11,2,6.8,4.2,4
12,2,6.8,2.6,4.4
13,3,5.4,3,4
14,2,6.8,3.4,4.4
15,2,6.8,3.4,3.2
16,3,6.6,3.2,3.4
17,2,6.8,3.4,3.4
18,2,6.8,2.6,5
19,2,6.8,2.6,4.6
20,2,6.8,3.4,3.4
21,2,6.8,2.6,4.8
22,2,6.8,3.4,4.2
23,2,6.8,4.2,4
24,3,6.6,3.2,3
25,3,6.6,4,3.2
26,3,6.6,4,3.2
27,3,6.6,4,2.8
28,3,6.6,3.2,3.8
29,3,6.6,3.2,3.8
30,3,6.6,2.4,4
32,3,6.6,2.4,4.2
33,3,6.6,2.4,4.8
34,3,6.6,3.2,3.6
35,3,6.6,4,3
36,3,6.6,2.4,4.6
37,3,6.6,2.4,4.6
38,2,6.8,2.6,3.8
39,2,6.8,2.6,4
40,2,6.8,2.6,4.4
41,3,6.6,2.4,4.6
42,2,6.8,2.6,4.2
43,2,6.8,3.4,3.6
44,3,5.4,3,3.6
45,4,3.4,1.4,2.6
46,4,3.4,1.4,3.2
47,4,3.4,1.4,3.2
48,5,3.2,1.2,2.4
49,4,3.4,1.4,2.6
50,4,3.4,1.4,2.4
51,4,3.4,1.4,3.2
52,4,3.4,1.4,3
53,4,3.4,1.4,3.2
54,4,3.4,1.4,3
55,4,3.4,1.4,3.4
56,4,3.4,1.4,3.2
57,4,3.4,1.9,2.8
58,5,3.2,1.2,2.6
59,5,3.2,1.2,2.4
60,5,3.2,1.7,2.2
