0,1,10,2,9.8
1,1,10,3,5.8
2,1,10,8,2.8
3,1,10,4,4.8
4,1,10,4,4.8
5,1,10,4,4.8
6,1,10,6,4.4
7,1,10,5,4.2
8,1,10,4,4.6
9,1,10,4,4.4
10,1,10,4,4.8
11,2,8.2,3.6,4.8
12,2,8.2,3.6,4.2
13,3,6.6,2.4,4.4
14,2,8.2,3.6,4
15,2,8.2,2.7,4.6
16,2,8.2,2.7,4.4
17,2,8.2,3.6,3.8
18,2,8.2,3.6,4
19,2,8.2,3.6,3.8
20,3,4.6,2.4,3.2
21,2,8.2,3.6,4.8
22,2,8.2,3.6,4.4
23,3,6.6,3.2,3.2
24,3,6.6,2.4,4
25,3,6.6,2.4,3.4
26,4,5.2,2.1,3.2
27,3,6.6,2.4,4
28,3,6.6,2.4,4
29,3,6.6,2.4,3.8
30,3,6.6,2.4,3.6
32,3,6.6,3.2,4
33,3,6.6,2.4,4
34,3,6.6,2.4,4
35,3,6.6,2.4,3.6
36,3,6.6,3.2,3.6
37,4,5.2,2.1,3.8
38,3,6.6,3.2,3.6
39,4,4.2,2,2.6
40,4,4.2,1.4,3
41,5,3.2,1.2,2.2
42,6,2.4,1.4,1.6
43,4,4.2,2,2.4
44,5,3.2,2.2,1.8
45,3,4.6,2.4,2.8
46,3,4.6,2.4,3
47,3,4.6,2.4,3.4
48,3,4.6,1.8,3.2
49,3,4.6,2.4,3.4
50,3,4.6,1.8,3.6
51,3,4.6,2.4,2.6
52,4,4.2,2,2.6
53,4,4.2,2,2.4
54,4,4.2,2,2.6
55,4,4.2,2,2.6
56,5,4,1.8,2
57,4,4.2,2,2.2
58,4,4.2,2,2.6
59,4,3.4,1.9,2.2
60,4,3.4,1.9,2.2
