0,1,10,2,8.2
1,1,10,3,5.4
2,1,10,4,4.6
3,1,10,5,4.2
4,1,10,5,4.6
5,1,10,5,4.2
6,1,10,5,4.6
7,2,5.8,2.4,3.2
8,1,10,6,4
9,1,10,4,4
10,1,10,4,4.8
11,1,10,5,4.6
12,1,10,6,4.4
13,2,5,3,4
14,2,5.8,3.4,3.2
15,1,10,4,4.2
16,1,10,5,3.8
17,1,10,5,4.4
18,2,5,3.5,3.6
19,2,5.8,3.4,3.4
20,3,5.4,3,2.8
21,2,5.8,3.4,3.4
22,2,5.8,3.4,3.8
23,2,5.8,3.4,3.8
24,2,5.8,4.5,3.2
25,2,5.8,3.1,3.6
26,2,5.8,3.1,3.2
27,1,10,6,3.8
28,1,10,6,3.4
29,1,10,6,3.6
30,2,8.2,6.3,2.8
32,3,5.4,4.4,2.4
33,3,5.4,3.7,2.8
34,4,3,1.7,2
35,4,3,1.3,2.8
36,4,3,1.7,2.6
37,4,3,2,2.4
38,3,4.6,3,2.8
39,3,4.6,3,2.6
40,3,4.6,2.7,3
41,2,8.2,4.5,3.8
42,2,8.2,4.5,3.6
43,2,8.2,4.5,3.6
44,2,8.2,4.5,4
45,2,8.2,4.5,4.4
46,2,8.2,5.4,3.2
47,2,8.2,4.5,3.6
48,2,8.2,4.5,4
49,2,8.2,4.5,3.8
50,3,4.2,2.3,3.2
51,3,4.2,2.3,3
52,3,4.2,3.2,2.6
53,3,4.2,2.3,3
54,3,4.2,2.3,2.8
55,3,4.2,2.3,2.8
56,4,3,1.3,2.6
57,2,8.2,3.6,3.2
58,2,8.2,3.6,3.2
59,2,8.2,3.6,3.2
60,2,8.2,3.6,3.4
