0,1,10,2,8.4
1,1,10,3,6.8
2,1,10,3,6.2
3,1,10,4,4.6
4,1,10,6,4.2
5,1,10,4,4.6
6,1,10,4,4.8
7,1,10,3,5
8,1,10,3,5.6
9,1,10,4,5
10,1,10,4,4.6
11,1,10,4,5
12,1,10,4,4.6
13,1,10,5,4.2
14,1,10,3,4.8
15,1,10,4,4.4
16,1,10,4,4.8
17,1,10,4,4.2
18,1,10,5,4.2
19,1,10,4,4.6
20,1,10,4,4
21,1,10,4,4
22,1,10,4,4
23,1,10,5,4.2
24,1,10,4,4.6
25,1,10,5,4.2
26,1,10,5,4.2
27,1,10,3,5
28,1,10,3,5.2
29,1,10,3,4.6
30,1,10,4,4.4
32,1,10,4,4.4
33,1,10,5,4.2
34,1,10,5,4.4
35,3,5.4,3,3.2
36,2,8.2,3.6,3.6
37,2,8.2,3.6,3.6
38,2,8.2,3.6,3.8
39,2,8.2,3.6,4.4
40,2,8.2,3.6,4
41,3,4.6,2.4,3
42,2,8.2,3.6,4
43,2,8.2,3.6,3.8
44,2,8.2,3.6,4.2
45,2,8.2,3.6,3.8
46,2,8.2,2.7,3.8
47,2,8.2,2.7,4
48,2,8.2,5.4,3.4
49,2,8.2,3.6,3.8
50,2,8.2,3.6,3.8
51,2,8.2,2.7,4
52,2,8.2,4.5,3.6
53,2,8.2,2.7,4
54,2,8.2,3.6,4
55,2,8.2,3.6,4
56,2,8.2,3.6,3.2
57,3,4.2,2.2,3.2
58,3,4.2,1.8,3.2
59,2,8.2,3.6,3.4
60,2,8.2,3.6,3.6
