0,2,8.2,1.8,6.6
1,1,10,3,6.6
2,1,10,4,5.2
3,1,10,3,4.6
4,1,10,4,4
5,1,10,4,4.8
6,1,10,4,4
7,1,10,3,5.4
8,1,10,4,4.2
9,1,10,4,5.2
10,1,10,4,4
11,1,10,4,4.4
12,1,10,5,4.6
13,2,5.8,3.4,3.4
14,1,10,4,5.4
15,1,10,4,5
16,1,10,4,5.2
17,1,10,4,4.8
18,1,10,4,5.2
19,1,10,4,5
20,1,10,6,4.4
21,1,10,4,4.6
22,1,10,4,5.4
23,1,10,4,4.8
24,1,10,5,4.4
25,1,10,4,4.2
26,1,10,5,4.4
27,1,10,6,4
28,1,10,4,4.6
29,1,10,4,4.8
30,1,10,4,5
32,1,10,3,4.8
33,1,10,4,5
34,1,10,3,5.4
35,1,10,3,5.2
36,1,10,4,5.6
37,1,10,4,4.6
38,1,10,4,5.4
39,1,10,4,4.8
40,1,10,4,5.8
41,1,10,4,5.2
42,1,10,4,4.6
43,1,10,4,4.8
44,1,10,4,4.2
45,1,10,4,4.6
46,1,10,3,5.2
47,1,10,4,4.8
48,1,10,4,5
49,1,10,4,4.6
50,1,10,4,4.4
51,1,10,4,5.6
52,1,10,3,5.4
53,1,10,4,5.2
54,1,10,4,4.6
55,1,10,4,4.6
56,1,10,4,5.4
57,1,10,4,5
58,1,10,4,5
59,1,10,5,4.4
60,1,10,4,4.8
