0,2,8.2,1.8,9.2
1,1,10,3,8.8
2,1,10,3,8.2
3,2,8.2,2.7,6
4,2,8.2,3.6,4.4
5,2,8.2,4.5,4.4
6,2,8.2,3.6,4.8
7,2,8.2,4.5,4.4
8,2,8.2,3.6,5.2
9,2,8.2,3.6,5.4
10,2,8.2,4.5,4.4
11,2,8.2,3.6,4.2
12,2,8.2,3.6,4
13,2,8.2,3.6,4.6
14,2,8.2,4.5,4.4
15,2,8.2,3.6,4
16,3,6.6,3.2,3.8
17,3,6.6,3.2,4.2
18,2,8.2,4.5,4.2
19,1,10,6,5.2
20,1,10,6,4.6
21,2,8.2,4.5,4.6
22,2,8.2,4.5,4.8
23,2,8.2,4.5,3.6
24,3,6.6,3.2,3
25,2,8.2,4.5,4.4
26,2,8.2,4.5,4
27,2,8.2,4.5,4
28,2,8.2,4.5,4.4
29,2,8.2,4.5,4.6
30,2,8.2,4.5,4.2
32,2,8.2,4.5,4.4
33,2,8.2,4.5,4.6
34,2,8.2,4.5,4.2
35,2,8.2,4.5,4.4
36,2,8.2,4.5,3.6
37,2,8.2,4.5,4
38,2,8.2,4.5,4
39,2,8.2,4.5,4.4
40,2,8.2,4.5,4.4
41,3,6.6,4.8,3
42,3,6.6,4.8,3.2
43,4,5.2,3.5,2.8
44,3,6.6,4.8,3.4
45,3,6.6,4,3.2
46,3,6.6,4.8,2.8
47,3,6.6,4,3.4
48,3,6.6,3.2,3.8
49,3,6.6,3.2,4.4
50,3,5.4,3.7,2.6
51,4,3.4,1.9,2.8
52,4,5.2,2.8,2.6
53,3,5.4,3,3.2
54,3,5.4,3.7,3.2
55,4,3.4,1.9,2.6
56,3,5.4,3,3.4
57,4,5.2,2.8,2.4
58,3,5.4,3,3.2
59,4,3.4,1.9,2.8
60,4,3.4,1.9,2.6
