0,1,10,3,8.4
1,1,10,4,6.4
2,1,10,5,5.2
3,1,10,7,3.6
4,1,10,6,4.2
5,1,10,6,4.2
6,1,10,7,3.8
7,1,10,7,3.4
8,2,5.2,3.2,3.6
9,2,5.2,3.6,3.6
10,1,10,8,3.8
11,1,10,7,3.6
12,2,5.8,3.1,4
13,2,5.8,3.4,3.2
14,2,5.8,3.4,3.6
15,1,10,6,4.4
16,2,6.8,4.2,3.8
17,2,6.8,4.2,3.2
18,2,8.2,5.4,3.2
19,1,10,6,4.4
20,1,10,5,3.2
21,1,10,6,4.4
22,2,8.2,5.4,3.2
23,1,10,6,3.8
24,1,10,5,4
25,1,10,6,4
26,3,3.6,1.8,3
27,3,3.6,1.8,3.4
28,3,3.6,1.8,3.4
29,3,3.6,1.8,3.2
30,4,3,1.3,3.2
32,4,3,1.6,2.6
33,3,4.2,2.3,3
34,3,4.2,2.3,2.8
35,2,8.2,4.5,3.8
36,2,8.2,4.5,4.2
37,2,8.2,4.5,3.8
38,2,8.2,3.6,4
39,2,8.2,3.6,3.6
40,2,8.2,3.6,4
41,3,4.6,2.1,3
42,2,8.2,4.5,3.2
43,2,8.2,4.5,3.6
44,2,8.2,3.6,3.2
45,3,6.6,4,2.4
46,5,2.8,1.8,2
47,4,5.2,2.8,2.6
48,2,8.2,4.5,3.2
49,3,6.6,3.2,3
50,2,8.2,3.6,4.2
51,2,8.2,3.6,4.2
52,2,8.2,3.6,4.6
53,2,8.2,2.7,5.2
54,2,8.2,3.6,3.8
55,1,10,4,4.8
56,1,10,5,3.6
57,1,10,6,3.8
58,1,10,5,4.4
59,1,10,6,4.2
60,1,10,4,4.2
