0,2,8.2,2.7,4.4
1,1,10,3,5
2,1,10,3,5.4
3,1,10,3,6
4,1,10,4,4.8
5,1,10,6,4
6,2,5.2,2,3.8
7,2,5.2,2.6,3.8
8,2,5.2,3,3.6
9,1,10,5,4.2
10,1,10,6,4
11,1,10,5,4
12,2,6.8,4.2,3.6
13,2,6.8,5,3
14,2,6.8,4.2,3.8
15,3,4.4,2.2,3.4
16,2,6.8,4.2,3.4
17,2,6.8,4.2,3.2
18,2,6.8,5,3.4
19,3,4.4,2.2,3.4
20,3,4.4,2.2,3.4
21,3,4.4,2.2,3.2
22,3,4.4,2.2,2.8
23,3,4.4,2.8,2.4
24,3,4.4,2.2,3
25,3,4.4,2.2,3.2
26,3,4.4,2.8,2.8
27,3,4.4,2.2,3
28,3,4.4,1.6,3.2
29,3,4.4,2.8,3
30,2,6.8,4.2,3.2
32,2,6.8,4.2,3.6
33,2,6.8,5,2.8
34,2,6.8,3.4,3.2
35,2,6.8,4.2,3.2
36,2,6.8,5,2.8
37,3,4.4,2.2,2.6
38,2,6.8,3.4,3.4
39,2,6.8,4.2,3
40,2,6.8,2.6,4.2
41,2,6.8,3.4,3.6
42,2,6.8,2.6,3.6
43,2,6.8,3.4,3.6
44,3,5.4,2.3,3.4
45,3,5.4,2.3,2.8
46,2,5.8,3.4,3.4
47,2,5.8,2.7,3.4
48,2,5.8,2.7,3.8
49,2,5.8,3.4,3.2
50,2,5.8,3.4,3.4
51,2,5.8,4.1,3.4
52,2,5.8,3.4,3.8
53,1,10,6,3.6
54,2,5.8,3.4,4
55,2,5.8,3.4,3.8
56,2,5.8,3.4,3
57,3,3.8,2.3,2.8
58,3,3.8,2.8,2.6
59,3,3.8,2.8,2.4
60,3,3.8,2.3,2.8
