0,1,10,2,12.4
1,1,10,3,9
2,1,10,4,7
3,3,4.2,1.8,3.6
4,2,8.2,4.5,4.2
5,3,4.2,1.8,3.6
6,3,4.2,1.8,3.4
7,3,4.2,1.8,3.4
8,3,4.2,2.2,3.4
9,3,4.2,1.8,3.4
10,2,5,3,3.4
11,3,4.2,2.3,3.2
12,2,5,2.5,3.6
13,2,5,2.5,3.8
14,2,5,3,3.4
15,3,4.2,2.3,3.2
16,2,5,2.5,3.6
17,2,5,2.5,3.8
18,2,5,2.5,4
19,3,4.2,2.3,2.4
20,2,5,2.5,3.4
21,2,5,3,3.6
22,2,5,2.5,4
23,1,10,6,4
24,1,10,4,5
25,1,10,4,5
26,1,10,4,5.6
27,1,10,4,4.4
28,2,8.2,3.6,4.4
29,2,8.2,3.6,4.6
30,2,8.2,2.7,5.8
32,2,8.2,2.7,5.6
33,2,8.2,2.7,5.2
34,2,8.2,2.7,4.8
35,2,8.2,3.6,4
36,2,8.2,2.7,5.6
37,2,8.2,2.7,5.4
38,2,8.2,4.5,4.6
39,2,8.2,3.6,4.4
40,2,8.2,3.6,5
41,2,8.2,3.6,4.8
42,2,8.2,4.5,4.2
43,2,8.2,4.5,4.4
44,2,8.2,4.5,4
45,2,8.2,3.6,4.4
46,2,8.2,4.5,4.8
47,3,4.6,2.1,3.8
48,2,8.2,3.6,4
49,2,8.2,4.5,3.4
50,2,8.2,3.6,4
51,2,8.2,3.6,4.2
52,2,8.2,3.6,4.2
53,2,8.2,3.6,4.8
54,2,8.2,4.5,4.4
55,3,4.6,2.1,4
56,3,4.6,2.4,3.4
57,4,3.6,1.6,2.4
58,3,4.6,2.7,3.4
59,3,4.6,2.1,3.6
60,3,4.6,2.4,3.2
