0,1,10,2,10.6
1,1,10,3,8.2
2,1,10,4,7
3,1,10,4,6
4,1,10,5,4.8
5,1,10,6,4.6
6,1,10,6,4.2
7,2,6.8,3.4,3.8
8,2,6.8,4.2,2.8
9,2,6.8,4.2,3
10,1,10,5,4.2
11,1,10,5,4.2
12,1,10,5,3.6
13,3,4.2,2.2,2.8
14,3,4.2,1.8,3.4
15,2,5,3,2.6
16,3,4.2,2.3,2.2
17,3,4.2,2.3,2.4
18,3,4.2,2.3,3
19,4,3.4,1.6,2.4
20,3,4.2,2.3,2.6
21,3,4.2,2.7,2.4
22,3,4.2,1.8,3.6
23,3,4.2,2.3,2.8
24,3,4.2,2.3,2.8
25,5,2.8,1.4,1.8
26,5,2.8,1.4,2
27,4,3.4,2,1.8
28,4,3.4,1.6,2.6
29,4,3.4,1.6,2.4
30,5,2.8,1.4,2
32,5,2.8,1.5,2.2
33,5,2.8,1.5,2
34,5,2.8,1.8,2
35,6,2,1,1.2
36,4,3.4,2.4,1.8
37,5,2.8,1.8,1.6
38,5,2.8,1.8,1.8
39,6,2,1,1.6
40,4,3.4,2.4,2.2
41,5,2.2,0.9,2.2
42,5,3.2,1.7,2
43,4,4.2,2,2.2
44,4,4.2,2.6,2.4
45,4,4.2,3.2,2.2
46,4,4.2,2.6,2.2
47,6,2,1,1.4
48,5,2.4,1.4,1.6
49,4,3,2,2.2
50,4,3,2,2.4
51,4,3,2,1.8
52,5,2.8,1.8,1.4
53,4,3,2,2.2
54,4,3,2,2.2
55,4,3,2,2.2
56,5,2.6,1.6,1.6
57,4,3,2,2.2
58,4,3,2,2.4
59,4,3,2,1.8
60,5,2.4,1.4,1.8
