0,2,8.2,1.8,8.6
1,1,10,4,6.6
2,1,10,3,6
3,1,10,3,6.4
4,1,10,3,6.4
5,1,10,3,6.2
6,1,10,3,6.8
7,1,10,3,6.2
8,1,10,3,7.4
9,1,10,3,6.4
10,1,10,3,5
11,1,10,4,4.6
12,1,10,4,6
13,2,8.2,3.6,5.4
14,2,8.2,3.6,5.2
15,2,8.2,3.6,4.4
16,2,8.2,3.6,5
17,1,10,4,5.6
18,1,10,5,4.4
19,1,10,5,4.6
20,1,10,5,4.2
21,1,10,5,4.4
22,1,10,5,5
23,1,10,5,4
24,1,10,4,5.2
25,1,10,7,4.2
26,1,10,6,4.2
27,1,10,6,4.4
28,1,10,7,3.4
29,1,10,6,4.4
30,1,10,6,4
32,2,5,2.5,3.8
33,3,4.2,1.8,3.6
34,2,5,2.5,4.6
35,2,5,2.5,3.6
36,2,5,3.5,3.6
37,2,5,2.5,3.6
38,2,5,3,3.4
39,3,4.2,2.3,3
40,3,4.2,2.3,3
41,2,5,3,3
42,2,5,3,3.4
43,2,5,3.5,3.2
44,2,5,3,4
45,2,5,3,3.6
46,2,5,3,3.4
47,2,5,3,4.2
48,2,5,3.5,3.2
49,3,4.2,2.3,3.4
50,2,5,3,3.4
51,2,5,3,3.8
52,3,4.2,2.3,3.4
53,3,4.2,2.3,3.2
54,3,4.2,2.7,2.6
55,3,4.2,2.3,3.2
56,3,4.2,2.8,3
57,3,4.2,2.3,3.6
58,3,4.2,2.3,3.4
59,3,4.2,2.3,2.8
60,3,4.2,2.7,3
