0,1,10,3,6.6
1,1,10,4,4.8
2,1,10,4,5
3,1,10,4,3.8
4,2,6.8,2.6,4.2
5,1,10,4,4.4
6,1,10,5,4.2
7,1,10,4,4
8,1,10,5,3.8
9,2,6.8,3.4,3.2
10,4,3,1.3,2.6
11,2,6.8,4.2,3.2
12,2,6.8,4.2,3.4
13,2,6.8,4.2,3.2
14,2,6.8,4.2,3.2
15,1,10,6,3.4
16,1,10,5,4.4
17,1,10,5,3.8
18,1,10,5,4
19,2,5.2,3.2,3.2
20,2,5.2,3.8,2.8
21,2,5.2,2.6,3.2
22,2,5.2,3.6,2.8
23,2,5.2,3.2,3
24,2,5.2,3,3.2
25,3,4.4,2.2,3.2
26,3,4.4,2.2,3.2
27,2,6.8,3.4,3.6
28,3,4.4,3.4,2.2
29,2,6.8,3.4,4
30,2,6.8,3.4,3.8
32,2,6.8,3.4,3.8
33,2,6.8,4.2,3.6
34,2,6.8,3.4,3.6
35,2,6.8,3.4,3.8
36,2,6.8,3.4,3.6
37,2,6.8,2.6,4.2
38,2,6.8,2.6,5
39,2,6.8,2.6,4.4
40,2,6.8,2.6,4
41,2,6.8,2.6,4.4
42,2,6.8,3.4,4.2
43,2,6.8,3.4,3.8
44,2,6.8,2.6,3.8
45,2,6.8,3.4,3.8
46,2,6.8,3.4,3.6
47,2,6.8,3.4,3.6
48,2,6.8,2.6,4
49,2,6.8,3.4,3.8
50,2,6.8,2.6,3.8
51,2,6.8,3.4,3.4
52,2,6.8,3.4,3.4
53,3,4.4,2.2,3
54,4,2.8,1.8,2.2
55,3,4.4,2.2,2.8
56,3,4.4,2.2,2.6
57,3,4.4,2.2,2.8
58,3,4.4,2.2,2.8
59,4,2.8,1.4,2.4
60,3,4.4,2.2,2.6
