0,2,8.2,1.8,7.2
1,1,10,4,5.2
2,1,10,3,6
3,1,10,5,4.4
4,1,10,5,4.4
5,1,10,4,4.8
6,1,10,4,4.6
7,1,10,4,5
8,1,10,4,5
9,2,6.8,3.4,3.6
10,2,6.8,3.4,3.2
11,3,3.8,1.5,2.8
12,3,3.8,1.5,3.4
13,3,3.8,1.5,3
14,3,3.8,1.8,3.4
15,3,3.8,2.3,2.8
16,2,5.8,3.8,3.6
17,3,3.8,2,3.2
18,2,5.8,3.8,3.6
19,2,5.8,3.4,3.6
20,2,5.8,3.1,3.2
21,2,5.8,2.4,3.8
22,2,5.8,3.1,4
23,2,5.8,3.4,3.4
24,2,5.8,3.4,3.2
25,2,5.8,3.1,3.4
26,2,5.8,2.4,4
27,2,5.8,3.8,3.2
28,3,3.8,2,3.4
29,4,2.6,1.3,2.8
30,2,5.8,3.8,3.6
32,2,5.8,4.1,3.4
33,2,5.8,4.1,3.4
34,2,5.8,3.1,3.8
35,2,5.8,3.8,3.4
36,2,5.8,3.8,3.6
37,2,5.8,3.4,3.4
38,2,5.8,3.8,3.8
39,2,5.8,3.1,3.6
40,2,5.8,3.8,3
41,2,5.8,3.8,3.4
42,3,3.4,1.4,3
43,3,3.4,1.4,3.2
44,3,3.4,2.4,2.6
45,4,2.6,1.3,2.2
46,4,2.6,1,3
47,4,2.6,1,2.8
48,4,2.6,1,2.6
49,2,5.8,3.8,3.2
50,2,5.8,3.1,3.4
51,2,5.8,3.1,3
52,2,5.8,3.8,3.2
53,2,5.8,3.8,3.4
54,2,5.8,3.1,3.4
55,2,5.8,3.4,3.2
56,3,3.4,1.4,3.2
57,2,5.8,3.1,3
58,2,5.8,3.8,3.6
59,2,5.8,3.1,3.4
60,2,5.8,2.4,3.8
