0,1,10,2,9.4
1,1,10,3,6.4
2,1,10,4,5.6
3,1,10,3,5.6
4,1,10,3,6
5,1,10,3,6.4
6,1,10,4,5.8
7,1,10,4,5.4
8,1,10,4,5.6
9,1,10,4,5.6
10,2,5.2,2.6,3.4
11,1,10,4,4.8
12,1,10,5,4.6
13,1,10,4,4.6
14,1,10,4,4.4
15,1,10,4,5.2
16,1,10,4,5
17,1,10,5,4.2
18,1,10,4,5.4
19,1,10,4,5.6
20,1,10,5,4
21,1,10,4,4.8
22,1,10,4,4.4
23,1,10,4,4.2
24,1,10,4,5
25,1,10,5,4.4
26,1,10,4,4.4
27,1,10,6,4.2
28,1,10,5,5.6
29,1,10,4,5
30,1,10,6,4
32,1,10,5,3.8
33,1,10,5,4.2
34,1,10,5,4.2
35,1,10,5,4.8
36,1,10,5,5
37,1,10,6,4
38,1,10,5,4.2
39,1,10,5,3.8
40,1,10,5,4.6
41,1,10,5,4.6
42,1,10,6,3.6
43,1,10,5,4.4
44,1,10,5,4.8
45,1,10,4,5
46,1,10,5,4.4
47,1,10,5,4.8
48,1,10,5,4.8
49,1,10,5,4.8
50,1,10,5,3.8
51,1,10,5,4.4
52,1,10,5,4.2
53,1,10,4,5.2
54,1,10,5,4.4
55,1,10,4,5
56,1,10,5,4.4
57,1,10,4,5.4
58,2,6.8,3.4,3.6
59,1,10,5,4.4
60,1,10,4,4.8
