0,1,10,2,12.2
1,1,10,3,6.6
2,1,10,3,6.4
3,1,10,3,6.8
4,1,10,3,7
5,1,10,4,6
6,1,10,3,5.8
7,1,10,3,6.2
8,1,10,4,5.6
9,1,10,4,5
10,2,5.2,3,3.2
11,2,5.2,2,3.8
12,3,4.6,3.6,2.4
13,3,4.6,3.3,2.8
14,3,4.6,2.4,2.2
15,3,4.6,2.1,3.4
16,3,4.6,2.1,3.6
17,3,4.6,1.5,3.6
18,3,4.6,1.5,3.6
19,4,3.6,1.3,3
20,3,4.6,1.5,3.2
21,3,4.6,1.8,3.6
22,3,4.6,1.5,3.8
23,4,3.6,1.3,3
24,3,4.6,2.4,3.4
25,3,4.6,2.4,2.8
26,4,3.6,1.8,2.6
27,3,4.6,2.1,3.4
28,3,4.6,2.1,3.8
29,3,4.6,3,3
30,3,4.6,2.4,3.4
32,3,4.6,2.1,3.2
33,3,4.6,2.1,4
34,3,4.6,2.1,3.6
35,3,4.6,2.1,3.8
36,2,5.2,3.2,4
37,2,5.2,2.6,4
38,2,5.2,2.6,4.2
39,3,4.6,2.1,3.4
40,3,4.6,1.5,4.2
41,3,4.6,2.1,4
42,3,4.6,1.5,3.8
43,3,4.6,1.8,3.4
44,3,4.6,2.1,3.6
45,3,4.6,2.7,3.4
46,3,4.6,1.5,4
47,3,4.6,1.5,3.8
48,3,4.6,2.7,3.4
49,3,4.6,2.4,3.2
50,3,4.6,3,3
51,3,4.6,2.1,3.8
52,3,4.6,2.1,3.6
53,2,5.2,2.6,3.8
54,2,5.2,2.6,3.8
55,2,5.2,3.2,3.6
56,2,5.2,2.6,4.2
57,2,5.2,3.2,3.4
58,2,5.2,3,3.2
59,3,4.2,2.7,2.4
60,3,4.2,2.3,2.8
