0,1,10,2,9.8
1,1,10,4,6.6
2,1,10,5,4.8
3,1,10,4,5
4,1,10,5,4.6
5,2,5.2,2.6,3.6
6,2,5.2,2.6,4
7,2,5.2,2.6,3.8
8,2,5.2,2.6,3.8
9,3,4.2,2.3,3
10,2,5.2,2.6,3.4
11,2,5.2,2.6,4.2
12,2,5.2,3.2,3.2
13,2,5.2,2.6,3.6
14,2,5.2,3.2,3.4
15,2,5.2,2.6,4.2
16,3,4.2,2.3,2.8
17,3,4.2,2.3,3.4
18,3,4.2,1.4,4
19,3,4.2,1.4,3.6
20,3,4.2,1.4,4
21,3,4.2,1.8,3.6
22,2,5.2,3,3.4
23,3,4.2,1.8,3.6
24,3,4.2,1.8,3
25,3,4.2,1.8,3.4
26,3,4.2,1.8,3.8
27,3,4.2,1.8,3.2
28,3,4.2,1.8,4.2
29,3,4.2,1.8,4
30,3,4.2,2.3,3.2
32,3,4.2,1.8,3.6
33,3,4.2,2.3,3.2
34,3,4.2,2.3,3.2
35,3,4.2,2.3,2.8
36,2,5.2,2.8,3.8
37,2,5.2,2.2,3.8
38,2,5.2,2.6,3.8
39,2,5.2,2.6,4
40,3,3.4,1.7,3
41,3,3.4,1.7,3
42,3,3.4,1.6,3.2
43,3,3.4,1.6,3
44,3,3.4,1.3,3.6
45,3,3.4,1.7,3
46,4,3,1.3,3
47,4,3,2,2.2
48,5,2.6,0.8,2.4
49,3,3.4,1.6,3.4
50,2,5.2,2.6,3
51,2,5.2,2.6,3.4
52,2,5.2,2.6,4
53,2,5.2,3.2,4
54,3,4.2,2.3,3.4
55,2,5.2,2.6,3.4
56,2,5.2,2.6,3.4
57,3,3.4,2,3.2
58,3,4.2,2.3,3.2
59,3,4.6,2.4,2.6
60,4,3.6,2.1,2.2
