0,2,8.2,1.8,10.2
1,1,10,3,8
2,1,10,4,5.4
3,2,8.2,2.7,4.8
4,2,8.2,3.6,5
5,3,6.6,2.4,5.2
6,2,8.2,3.6,5
7,2,8.2,3.6,4.4
8,2,8.2,3.6,4
9,3,6.6,3.2,4
10,2,8.2,3.6,4.2
11,2,8.2,4.5,3.6
12,3,6.6,2.4,3.4
13,3,6.6,2.4,4.2
14,3,6.6,3.2,4.2
15,3,6.6,3.2,3.4
16,5,3.2,1.7,2.2
17,2,8.2,3.6,3.4
18,4,5.2,2.8,2.4
19,2,8.2,3.6,3.8
20,4,3.6,2.1,2.8
21,2,8.2,3.6,3.8
22,1,10,5,3.6
23,1,10,5,4.4
24,2,8.2,3.6,4.4
25,1,10,4,5.2
26,2,8.2,2.7,4.4
27,2,8.2,3.6,3.4
28,2,8.2,3.6,3.8
29,2,8.2,3.6,4.2
30,2,8.2,2.7,5.6
32,2,8.2,2.7,5.2
33,2,8.2,2.7,5.2
34,3,6.6,2.4,4
35,2,8.2,2.7,4.8
36,1,10,4,5.2
37,1,10,4,5
38,1,10,4,5.2
39,1,10,5,5.2
40,1,10,5,4.8
41,1,10,4,5.4
42,1,10,5,5
43,1,10,4,5.4
44,1,10,4,5.4
45,2,8.2,3.6,4.2
46,2,8.2,3.6,5
47,2,8.2,3.6,5.2
48,2,8.2,3.6,4.8
49,2,8.2,3.6,4.2
50,2,8.2,4.5,4.6
51,2,8.2,3.6,4.2
52,2,8.2,3.6,4.4
53,2,8.2,4.5,3.4
54,2,8.2,4.5,3.4
55,1,10,5,3.8
56,1,10,6,4
57,1,10,4,4.8
58,1,10,5,4.8
59,1,10,4,4.4
60,1,10,5,4.4
