0,1,10,2,8.4
1,1,10,3,6.4
2,1,10,4,4.8
3,1,10,4,4.6
4,2,5.8,3.4,3.8
5,2,5.8,3.4,3.4
6,3,5.4,3,3.2
7,3,5.4,2.3,3.2
8,3,4.6,2.4,3.2
9,3,4.6,3,2.6
10,3,4.6,2.4,2.6
11,3,4.6,2.4,3.2
12,3,4.6,2.4,2.8
13,4,4.2,2,2.8
14,4,4.2,2.6,2.2
15,4,4.2,2,2.4
16,4,4.2,2,2.4
17,4,4.2,2,2.8
18,4,4.2,2.6,2.6
19,4,4.2,2.6,2.2
20,4,4.2,2,2.8
21,4,4.2,2,2.6
22,4,4.2,2,2.8
23,4,4.2,2,3.4
24,4,4.2,2,2.8
25,4,4.2,2,3
26,4,4.2,2,2.8
27,4,4.2,2,2.6
28,4,4.2,2,2.8
29,3,5.4,3,3.2
30,3,5.4,3,2.8
32,3,5.4,3,3.2
33,4,4.2,2.6,2.2
34,3,5.4,3.7,2.6
35,3,5.4,3.7,2.6
36,3,5.4,3,3
37,3,5.4,3.7,2.6
38,4,4.2,2.6,2.6
39,3,5.4,2.3,3
40,3,5.4,3,3
41,3,5.4,3,3.4
42,3,5.4,3,3
43,4,4.2,2,3.2
44,3,4.6,2.4,3.2
45,2,8.2,5.4,3.8
46,2,8.2,5.4,3
47,3,5.4,2.3,3.2
48,2,8.2,5.4,3.4
49,1,10,5,4.4
50,2,6.8,4.2,3.2
51,1,10,5,4
52,1,10,6,3.8
53,1,10,6,3.6
54,2,8.2,5.4,3
55,1,10,5,4.2
56,1,10,5,4.6
57,1,10,5,4
58,1,10,5,4.4
59,1,10,5,4.8
60,1,10,5,4.6
