0,1,10,2,10
1,1,10,3,7.4
2,1,10,3,6
3,1,10,4,5.4
4,1,10,4,6
5,1,10,4,4.6
6,1,10,6,4.8
7,2,6.8,3.4,3.8
8,2,6.8,2.6,3.8
9,2,6.8,2.6,4
10,1,10,5,3.8
11,2,6.8,2.6,3.8
12,2,8.2,3.6,4.4
13,2,6.8,2.6,4.6
14,2,6.8,2.6,4.8
15,3,5.4,3,3.4
16,4,5.2,2.1,3
17,4,5.2,2.1,2.6
18,3,5.4,3,3
19,3,5.4,2.3,3.4
20,3,5.4,3,2.6
21,4,4.2,2,2.8
22,4,4.2,2,2.6
23,5,2.6,1.6,1.8
24,4,4.2,2.6,2.4
25,5,2.6,1.2,2.2
26,4,3,2,2
27,2,5.2,3,2.8
28,2,5.2,3.8,3.4
29,2,5.2,2.6,3.8
30,3,4.6,2.1,3.6
32,4,2.8,0.9,3
33,3,4.6,2.4,3.4
34,3,3.6,2.2,3
35,2,5.2,2.6,3.8
36,2,8.2,5.4,3.4
37,2,8.2,2.7,4.6
38,2,8.2,3.6,4.6
39,2,8.2,3.6,3
40,2,8.2,4.5,3.4
41,2,8.2,4.5,3.8
42,3,6.6,3.2,3.2
43,3,4.2,2.3,3
44,2,8.2,4.5,3.6
45,2,8.2,4.5,2.8
46,3,6.6,3.2,3.4
47,1,10,4,4.2
48,1,10,4,4.8
49,1,10,4,4
50,2,8.2,2.7,4.6
51,2,8.2,2.7,4.6
52,2,8.2,2.7,4.6
53,2,8.2,3.6,4.4
54,2,8.2,3.6,4.4
55,2,8.2,2.7,5
56,2,8.2,2.7,4.8
57,2,8.2,4.5,4
58,3,5.4,2.3,3.8
59,3,5.4,3,3.4
60,1,10,6,4.6
