0,1,10,3,7.2
1,1,10,3,5.2
2,1,10,3,5
3,1,10,3,5.2
4,1,10,3,5.4
5,1,10,3,5.4
6,1,10,3,4.8
7,1,10,4,4.6
8,1,10,3,5
9,1,10,4,4.8
10,1,10,4,5
11,1,10,4,4.8
12,1,10,4,5
13,1,10,5,4.6
14,1,10,6,4.2
15,1,10,5,3.8
16,1,10,6,3.8
17,2,8.2,4.5,3.4
18,3,5.4,3,2.6
19,3,5.4,3.7,3
20,3,5.4,3.7,3
21,3,5.4,3.7,2.8
22,3,5.4,3.7,2.6
23,3,5.4,3.7,3
24,4,4.2,2.6,2.4
25,4,3,1.6,2.6
26,3,5.4,3.7,2.6
27,3,5.4,3,3.2
28,4,4.2,2,3
29,3,5.4,3,3.2
30,3,5.4,3,3.4
32,3,5.4,3,3.6
33,3,5.4,3,3.2
34,3,5.4,3,3.2
35,3,5.4,2.3,3.2
36,3,5.4,2.3,3
37,3,5.4,2.3,3.6
38,3,5.4,3,3.2
39,3,5.4,1.6,3.4
40,3,5.4,2.3,3
41,3,5.4,3,2.8
42,3,5.4,2.3,3.2
43,3,5.4,3,3.2
44,2,6.8,3.4,3
45,2,6.8,2.6,3.6
46,3,5.4,2.3,3.2
47,2,6.8,3.4,3.6
48,3,5.4,2.3,3.6
49,3,5.4,3,3
50,3,5.4,3.7,3
51,3,5.4,2.3,3.2
52,3,5.4,2.3,3.6
53,4,4.2,2,2.4
54,2,6.8,3.4,3
55,3,5.4,2.3,3
56,4,4.2,1.4,2.8
57,3,4.4,1.6,3.4
58,3,4.4,2.2,3.4
59,3,4.4,2.2,3.2
60,3,4.4,2.8,2.6
