0,1,10,3,7
1,1,10,4,6.4
2,1,10,4,5
3,1,10,4,4.6
4,1,10,3,5.6
5,1,10,3,5.2
6,1,10,4,5
7,1,10,4,5
8,1,10,5,4
9,1,10,6,4.2
10,1,10,7,4
11,2,5,2.5,3.6
12,3,4.2,2.3,3.2
13,3,4.2,2.3,3.4
14,3,4.2,2.3,3.4
15,3,4.2,2.3,3.4
16,3,4.2,2.7,2.8
17,2,5.2,3,3.4
18,3,4.2,1.8,3.4
19,3,4.2,1.8,3.6
20,2,5,3,2.8
21,3,4.2,2.2,2.8
22,4,3.4,1.4,2.2
23,4,3.4,2,2.2
24,3,4.2,2.7,2.6
25,3,4.2,2.7,2.8
26,3,4.2,2.7,2.6
27,4,3.4,2,2.4
28,2,5.2,3,3
29,2,5.2,3,3.2
30,2,5.2,3,3.2
32,3,4.2,2.2,3.2
33,2,5.2,3,3.2
34,2,5.2,3,3
35,2,5.2,3,3.2
36,3,3.4,2.1,2.8
37,2,5.2,3,3.2
38,2,5.2,3,3.4
39,2,5.2,3,3
40,2,5.2,3,3.2
41,2,5.2,3,3.6
42,4,3.6,2.1,2.6
43,3,4.6,2.4,2.8
44,3,4.6,3,2.6
45,3,4.6,2.4,2.8
46,4,3.6,1.6,2.6
47,4,3.6,2.1,2.6
48,3,4.2,2.2,3
49,4,3.6,2.1,2.2
50,3,4.2,2.7,2.6
51,3,4.2,2.7,2.4
52,4,3.6,2.6,2
53,4,3.6,2.1,2.2
54,5,2.4,1.4,2
55,4,3.6,2.1,2.6
56,4,4.2,1.4,2.8
57,3,3.8,1.8,3.4
58,3,3.4,2.4,2.6
59,3,3.4,2,2.6
60,3,4.6,2.4,2.4
