0,2,8.2,1.8,8
1,1,10,4,6.8
2,1,10,4,5.4
3,1,10,3,6
4,1,10,4,5.2
5,1,10,4,5.4
6,2,8.2,3.6,4
7,1,10,6,3.6
8,2,6.8,3.4,3.6
9,2,6.8,3.4,3.6
10,2,6.8,3.4,3.6
11,2,6.8,3.4,3.6
12,2,6.8,3.4,4.2
13,2,6.8,3.4,3.6
14,2,6.8,3.4,3.6
15,1,10,5,4.2
16,2,6.8,3.4,4
17,3,3.6,1.8,2.8
18,2,8.2,3.6,3.2
19,2,6.8,3.4,3.6
20,1,10,5,4.2
21,1,10,5,4.2
22,1,10,5,3.6
23,2,5.8,3.4,3.2
24,1,10,4,4.4
25,2,8.2,3.6,3.8
26,2,8.2,5.4,3.6
27,2,8.2,6.3,3.4
28,2,8.2,4.5,3.8
29,2,8.2,5.4,3.6
30,2,8.2,5.4,3.4
32,2,8.2,5.4,3.2
33,3,6.6,4.8,2.8
34,3,6.6,4,3
35,3,6.6,4,3
36,3,6.6,3.2,3.4
37,4,3.4,2.4,2.4
38,3,6.6,3.2,3.4
39,3,6.6,3.2,3.4
40,3,6.6,3.2,3.2
41,3,6.6,3.2,2.8
42,3,6.6,3.2,3
43,3,6.6,3.2,3.8
44,3,6.6,3.2,3.2
45,3,6.6,3.2,3.4
46,3,6.6,3.2,4
47,4,5.2,2.8,2.8
48,3,6.6,3.2,3.2
49,3,6.6,4,3
50,3,6.6,4,3.6
51,2,8.2,5.4,3.4
52,3,5.4,3,3
53,2,8.2,5.4,3.6
54,2,8.2,5.4,4
55,2,8.2,5.4,3.6
56,3,6.6,4,2.8
57,3,6.6,4,2.6
58,4,5.2,2.8,2.4
59,3,6.6,4,3
60,2,8.2,5.4,3.2
