0,1,10,2,12.6
1,1,10,3,9.8
2,1,10,3,6.8
3,1,10,5,5.6
4,1,10,6,3.8
5,2,8.2,3.6,3.8
6,2,8.2,3.6,3.8
7,2,8.2,3.6,4.2
8,1,10,6,4.2
9,2,8.2,5.4,4
10,1,10,6,4.6
11,1,10,4,4.8
12,2,5.8,2.4,4
13,1,10,4,4.4
14,1,10,7,4.2
15,1,10,6,5.4
16,1,10,6,4.4
17,3,5.4,3,3.8
18,2,6.8,3.4,4
19,2,6.8,3.4,4.4
20,2,6.8,3.4,4.2
21,2,6.8,3.4,4.2
22,2,6.8,4.2,4.4
23,3,3.6,2.2,3
24,2,6.8,3.4,4.4
25,2,6.8,3.4,4
26,3,6.6,4,3.6
27,3,6.6,3.2,4
28,3,6.6,3.2,4.2
29,3,6.6,3.2,4.2
30,3,6.6,3.2,4.4
32,3,6.6,4,3.6
33,3,6.6,4,3.8
34,3,6.6,3.2,4.2
35,3,6.6,3.2,4.2
36,3,6.6,3.2,3.8
37,3,6.6,3.2,3.2
38,3,6.6,3.2,4
39,3,6.6,3.2,2.8
40,2,8.2,3.6,3.6
41,2,8.2,3.6,4.2
42,2,8.2,3.6,5.4
43,2,8.2,2.7,5.2
44,2,8.2,3.6,4.4
45,2,8.2,4.5,4.6
46,2,8.2,4.5,4.2
47,3,6.6,3.2,4.2
48,3,6.6,3.2,3.8
49,3,6.6,2.4,5
50,3,6.6,3.2,4.6
51,3,6.6,3.2,4.2
52,4,5.2,2.8,3
53,4,5.2,2.1,2.8
54,4,5.2,2.1,3.2
55,4,5.2,2.1,3.2
56,4,5.2,2.1,3.2
57,3,6.6,3.2,3.2
58,3,6.6,2.4,3.8
59,3,6.6,2.4,3.6
60,4,5.2,2.1,2.8
