0,1,10,2,9.6
1,1,10,4,7.8
2,1,10,4,6.4
3,2,8.2,3.6,4.4
4,1,10,5,5.6
5,1,10,6,4.4
6,2,5.2,2.6,4
7,3,4.2,2.3,3
8,2,5.2,3.2,3
9,2,5.2,3.2,2.6
10,3,4.2,2.3,3
11,3,4.2,2.3,2.8
12,3,4.2,2.3,3
13,4,3.4,2,2.6
14,3,4.2,2.3,2.8
15,3,4.2,2.3,2.8
16,4,3.4,1.6,3
17,4,3.4,2,2.6
18,4,3.4,1.6,3.4
19,4,3,1.3,2.6
20,4,3,1.3,2.6
21,3,3.6,1.8,3.6
22,3,3.6,1.8,3.6
23,3,3.6,1.8,3
24,4,3,1.3,2.8
25,3,3.6,1.8,3.6
26,3,3.6,2.2,3
27,3,3.6,2.2,2.6
28,3,3.6,1.8,2.8
29,3,3.6,1.8,3.4
30,3,3.6,1.8,3.4
32,4,3,1.6,3
33,4,3.4,1.6,2.6
34,4,3.4,1.6,2.6
35,4,3.4,2,2.6
36,3,4.2,1.8,2.8
37,2,5.2,2.6,3.6
38,2,5.2,2.6,4
39,3,4.6,2.4,3.2
40,3,4.6,3,2.8
41,3,4.6,3,3.2
42,3,4.6,1.8,4
43,3,4.6,1.8,3.6
44,3,4.6,2.4,3.8
45,3,4.6,2.4,3
46,4,3.6,1.6,2.8
47,4,3.6,2.1,2.4
48,4,3.6,1.6,3.6
49,4,3.6,1.6,3.4
50,3,4.6,2.4,3.6
51,3,4.6,2.4,3.4
52,4,3.6,1.6,3.2
53,4,3.6,2.1,2.6
54,4,3.6,2.1,2.6
55,3,4.6,3,3
56,2,8.2,4.5,4
57,3,4.6,2.4,3.2
58,4,4.2,2,2.6
59,3,6.6,4,3
60,2,8.2,4.5,3.4
