0,2,8.2,1.8,10
1,1,10,3,7.8
2,1,10,4,5.8
3,1,10,4,5
4,1,10,5,4.8
5,1,10,4,5.6
6,1,10,4,4.6
7,1,10,5,5.4
8,1,10,5,5.4
9,1,10,4,6
10,2,8.2,3.6,4
11,2,8.2,3.6,4.2
12,2,8.2,3.6,3.4
13,2,8.2,3.6,4
14,2,8.2,3.6,3.8
15,2,8.2,4.5,3.8
16,3,6.6,2.4,3.4
17,3,6.6,2.4,3.2
18,3,6.6,3.2,3.4
19,3,6.6,2.4,4
20,3,6.6,3.2,3.6
21,3,6.6,2.4,3.6
22,3,6.6,4,3
23,3,6.6,3.2,3.8
24,3,6.6,2.4,4.4
25,3,6.6,2.4,3.4
26,3,6.6,2.4,4.2
27,3,6.6,2.4,4.4
28,3,6.6,2.4,4.8
29,3,6.6,2.4,4.8
30,3,6.6,2.4,4
32,3,6.6,2.4,4.2
33,3,6.6,3.2,3.8
34,3,6.6,2.4,5.4
35,3,6.6,2.4,5.2
36,3,6.6,2.4,4.4
37,3,6.6,2.4,4
38,3,6.6,2.4,3.6
39,3,4.6,2.4,3.6
40,3,4.6,2.4,3.6
41,3,4.6,2.4,3.2
42,5,2.8,1.4,2.8
43,3,6.6,3.2,3.8
44,3,6.6,3.2,3.8
45,4,3.6,2.1,3
46,3,6.6,3.2,3.8
47,3,6.6,4,3
48,5,4,1.8,3
49,5,3.2,1.7,2.8
50,3,6.6,4,3.2
51,3,6.6,4,3.2
52,3,6.6,3.2,3.6
53,3,6.6,3.2,4
54,3,6.6,3.2,4.2
55,3,6.6,3.2,4
56,3,6.6,3.2,3.4
57,3,6.6,3.2,4.2
58,3,6.6,4,3.4
59,2,8.2,3.6,4.6
60,3,6.6,3.2,4.2
