0,2,8.2,1.8,9.2
1,1,10,2,9
2,1,10,3,7.6
3,1,10,4,6
4,1,10,5,5.8
5,1,10,5,5.8
6,1,10,5,5.2
7,1,10,5,5
8,1,10,6,5
9,1,10,5,4.8
10,2,8.2,4.5,4.6
11,2,8.2,4.5,4.4
12,2,8.2,4.5,4.4
13,2,8.2,4.5,4.4
14,3,6.6,3.2,3.6
15,2,8.2,4.5,4.4
16,2,8.2,4.5,3.6
17,3,6.6,3.2,3.8
18,2,8.2,4.5,3.2
19,2,8.2,4.5,2.8
20,2,8.2,4.5,3.8
21,3,6.6,4,3.2
22,3,6.6,4,3.2
23,3,6.6,4,3.2
24,3,6.6,4.8,2.8
25,3,6.6,4,3.6
26,3,6.6,4,3.4
27,3,6.6,4,3.4
28,3,6.6,4.8,3.6
29,3,6.6,4,3.6
30,3,6.6,4,2.6
32,4,4.2,2,3
33,3,6.6,4,3.2
34,3,6.6,4,3.4
35,3,6.6,4,3
36,3,6.6,4.8,2.6
37,3,6.6,4.8,3.2
38,3,6.6,4.8,3.4
39,3,6.6,4.8,3.2
40,2,8.2,5.4,3.2
41,2,8.2,5.4,3.4
42,3,6.6,4.8,3
43,3,6.6,4.8,3.6
44,3,6.6,4.8,3.2
45,3,6.6,4,3
46,4,5.2,2.8,2.6
47,5,4,1.8,2.8
48,4,5.2,3.5,2.4
49,3,6.6,4,3.4
50,3,6.6,3.2,3
51,3,6.6,3.2,2.6
52,3,6.6,4,3
53,4,3.6,2.1,2.8
54,4,3.6,2.6,2.4
55,4,3.6,2.1,2.8
56,4,3.6,2.6,2.2
57,4,3.6,2.1,2.6
58,5,2.8,1.4,2
59,4,3.6,2.6,2.4
60,4,3.6,2.1,2.8
