0,1,10,2,11
1,1,10,3,7
2,1,10,6,5
3,1,10,6,4.4
4,1,10,5,4.4
5,1,10,5,5.4
6,1,10,7,3.6
7,1,10,6,4.8
8,3,4.2,2.3,3.4
9,3,4.2,2.3,4
10,3,4.2,2.3,3.2
11,4,3.4,1.6,3.4
12,4,3.4,1.6,2.8
13,4,3.4,1.6,3.4
14,4,3.4,1.6,3.2
15,4,3.4,1.6,3
16,4,3.4,1.6,2.8
17,4,3.4,1.6,3
18,4,3.4,1.6,3.2
19,4,3.4,1.6,2.8
20,4,3.4,1.2,3.4
21,4,3.4,1.6,3.2
22,4,3.4,1.6,2.8
23,4,3.4,1.6,3.4
24,4,3.4,1.6,2.8
25,4,3.4,1.2,4
26,4,3.4,1.6,2.8
27,4,3.4,1.6,2.8
28,4,3.4,1.2,3.4
29,4,3.4,1.2,3
30,4,3.4,1.2,3.8
32,3,4.2,2.3,3.2
33,3,4.2,2.3,3.6
34,5,2.6,1.2,2.4
35,3,4.2,1.9,4
36,3,4.2,2.3,3
37,3,4.2,2.8,2.8
38,2,5.2,2.6,3.8
39,3,4.2,1.9,3.4
40,2,5.2,2.8,3.6
41,2,5.2,2.6,3.8
42,2,5.2,2.6,3.8
43,2,5.2,2.6,3.4
44,2,5.2,2.2,4.2
45,2,5.2,2.8,3.8
46,2,5.2,2.6,4
47,3,3.6,1.8,3.4
48,3,4.2,1.9,4
49,3,4.2,1.9,3.8
50,3,4.2,2.3,3
51,3,4.2,2.8,3
52,3,4.2,2.8,2.4
53,4,3,1.6,2.8
54,4,3.4,1.6,3
55,3,4.2,2.3,3.2
56,3,4.2,2.8,3
57,3,4.2,2.3,3.6
58,3,4.2,2.3,2.8
59,3,4.2,2.7,2.6
60,3,4.2,2.3,4
