0,1,10,2,8.6
1,1,10,3,5.8
2,1,10,3,6.2
3,1,10,3,4.8
4,1,10,3,5
5,1,10,4,4
6,1,10,4,4.8
7,1,10,4,4.8
8,1,10,4,4.2
9,1,10,5,3
10,1,10,4,3.8
11,2,8.2,3.6,3.2
12,2,8.2,3.6,4.2
13,2,8.2,3.6,3.6
14,2,8.2,3.6,4
15,2,8.2,3.6,4
16,2,8.2,2.7,4
17,2,8.2,3.6,3.6
18,2,8.2,4.5,3.4
19,2,8.2,3.6,3.2
20,2,8.2,4.5,3.4
21,2,8.2,3.6,3.8
22,2,8.2,4.5,3.2
23,2,8.2,3.6,3.6
24,3,5.4,3,3
25,2,8.2,3.6,3.8
26,2,8.2,3.6,3.6
27,2,8.2,3.6,3.2
28,2,8.2,3.6,3.6
29,2,8.2,3.6,4
30,2,8.2,3.6,3.8
32,2,8.2,3.6,3.6
33,2,8.2,3.6,3.6
34,3,5.4,2.3,3.4
35,2,8.2,2.7,4.2
36,2,8.2,2.7,4.4
37,2,8.2,3.6,3.8
38,2,8.2,3.6,3.8
39,2,8.2,3.6,3.4
40,2,8.2,2.7,3.8
41,2,8.2,4.5,3.2
42,2,8.2,3.6,3.6
43,3,6.6,3.2,3.2
44,3,6.6,3.2,3.2
45,3,6.6,3.2,3
46,3,6.6,3.2,3.6
47,3,6.6,4,2.4
48,3,6.6,4.8,2.8
49,2,8.2,5.4,3.4
50,2,8.2,5.4,3
51,2,8.2,5.4,3.2
52,3,4.6,3,3
53,3,4.6,3,2.8
54,5,2.6,1.2,2
55,3,4.6,3,3
56,3,4.6,3,3
57,3,4.6,3,2.8
58,5,2.6,1.2,2
59,3,4.6,3,3
60,3,4.6,3,3
