0,2,8.2,1.8,6.6
1,1,10,4,6.8
2,1,10,4,5.6
3,1,10,4,5.4
4,1,10,3,6
5,1,10,4,5.2
6,1,10,5,4.6
7,1,10,4,4.2
8,3,6.6,3.2,3.6
9,3,5.4,2.3,3.6
10,3,5.4,2.3,3.6
11,4,4.2,2,2.8
12,4,4.2,2,2.6
13,4,4.2,2.6,2.2
14,3,5.4,3,3
15,2,8.2,4.5,3.4
16,2,8.2,5.4,2.6
17,2,8.2,3.6,3
18,3,6.6,2.4,3.6
19,3,6.6,4,3.2
20,4,5.2,2.1,2.4
21,3,6.6,4,3
22,2,8.2,4.5,3.8
23,3,6.6,3.2,3.8
24,2,8.2,3.6,4.4
25,2,8.2,4.5,3.6
26,2,8.2,4.5,3.8
27,2,8.2,5.4,3
28,2,8.2,5.4,3.2
29,3,5.4,3.7,3.2
30,4,3,2,2.4
32,4,3,2,2.2
33,4,3,1.7,2.8
34,4,3,1.7,2.6
35,4,3,1.7,2.8
36,5,2.8,1.5,2.4
37,4,3,2,2.2
38,4,3,1.7,2.8
39,3,4.2,2.7,2.8
40,4,3.4,2,2.4
41,4,3.4,2.4,2.4
42,4,3.4,2,2.8
43,3,4.2,2.7,3.2
44,4,3,1.7,2.4
45,4,3,1.7,2.6
46,3,4.2,3.2,2.8
47,4,3.4,2,2.4
48,3,4.2,2.7,3
49,3,4.2,2.7,2.8
50,3,4.2,2.7,2.8
51,4,3.4,2.4,2.2
52,3,4.2,2.7,3.2
53,3,4.2,2.7,2.4
54,3,4.2,2.7,3
55,4,3.4,2,2.8
56,3,4.2,2.7,3
57,3,4.2,3.2,2.8
58,3,4.2,2.7,3.2
59,3,4.2,2.7,2.8
60,3,4.2,2.7,2.8
