0,1,10,3,9.4
1,1,10,5,6
2,1,10,6,4.6
3,1,10,6,5
4,1,10,5,4.8
5,1,10,3,5
6,1,10,4,4.6
7,1,10,4,4.6
8,1,10,4,4.6
9,1,10,4,5
10,3,5.4,2.3,3.2
11,1,10,4,5.4
12,1,10,4,5.4
13,2,8.2,2.7,4.2
14,1,10,4,5
15,1,10,4,4.8
16,1,10,4,5.4
17,1,10,4,4.4
18,1,10,4,6
19,1,10,4,4.8
20,1,10,5,4.2
21,1,10,4,5.4
22,1,10,6,4.6
23,1,10,4,5
24,1,10,4,4.4
25,1,10,4,4.8
26,1,10,4,5
27,1,10,4,5.8
28,1,10,4,5.8
29,1,10,4,5.8
30,1,10,3,6.2
32,1,10,3,6.4
33,1,10,4,5.8
34,1,10,4,5.2
35,1,10,6,3.6
36,2,8.2,5.4,3.8
37,2,8.2,5.4,3.8
38,2,8.2,6.3,2.8
39,2,8.2,4.5,3.2
40,2,8.2,4.5,3.4
41,2,8.2,4.5,3.8
42,2,8.2,5.4,3.4
43,2,8.2,3.6,4.2
44,2,8.2,3.6,4.4
45,2,8.2,2.7,4.4
46,2,8.2,3.6,4.6
47,2,8.2,4.5,4.6
48,1,10,5,4.4
49,1,10,4,4.8
50,1,10,5,4.8
51,1,10,4,5.6
52,1,10,4,5.4
53,1,10,4,5
54,1,10,4,5.8
55,1,10,4,6
56,1,10,5,4.8
57,1,10,5,4.2
58,1,10,5,4.6
59,1,10,5,4.8
60,1,10,5,4.4
