0,1,10,2,9.6
1,1,10,3,7.4
2,1,10,4,5.4
3,1,10,3,5
4,1,10,4,5
5,2,8.2,2.7,5
6,2,8.2,2.7,4.4
7,1,10,3,6
8,1,10,3,5.2
9,1,10,4,4.8
10,2,8.2,3.6,4.2
11,2,8.2,3.6,4
12,2,8.2,3.6,4.6
13,2,8.2,2.7,4.6
14,2,8.2,2.7,4.4
15,2,8.2,2.7,4.6
16,2,8.2,3.6,3.8
17,2,8.2,2.7,3.8
18,2,8.2,2.7,4.8
19,2,8.2,2.7,4
20,2,8.2,2.7,4.4
21,2,8.2,2.7,5.6
22,3,5.4,2.3,3.4
23,2,8.2,3.6,4.8
24,2,8.2,4.5,4.2
25,2,8.2,3.6,4.4
26,2,8.2,3.6,5.2
27,2,8.2,3.6,5
28,2,8.2,3.6,5.6
29,2,8.2,4.5,3.2
30,2,8.2,4.5,4
32,2,8.2,4.5,4.2
33,2,8.2,5.4,3.8
34,3,4.2,1.8,3.4
35,3,4.2,2.3,3.4
36,3,4.2,1.8,4
37,4,3.4,1.6,3.4
38,3,4.2,2.3,3
39,3,4.2,2.3,3.2
40,3,4.2,2.3,3.2
41,3,4.2,1.8,3.8
42,3,4.2,2.8,3.6
43,3,4.2,1.8,3.2
44,3,4.2,1.8,3.6
45,3,4.2,1.8,3.4
46,3,4.2,1.8,3.6
47,2,8.2,3.6,4
48,2,8.2,3.6,4
49,2,8.2,2.7,4
50,2,8.2,3.6,4.4
51,2,8.2,4.5,4.2
52,2,8.2,2.7,5
53,2,8.2,3.6,4.2
54,2,8.2,6.3,3.6
55,2,8.2,5.4,3.8
56,2,8.2,6.3,3.2
57,3,4.2,1.8,3.4
58,2,8.2,4.5,4
59,2,8.2,4.5,3.8
60,2,8.2,5.4,3.6
