0,2,8.2,2.7,5.4
1,1,10,3,5.2
2,1,10,3,5.2
3,1,10,3,5.6
4,1,10,5,4.8
5,1,10,3,4.8
6,1,10,5,4.2
7,1,10,4,5.2
8,1,10,4,5.2
9,1,10,4,5
10,1,10,4,5
11,1,10,7,3.6
12,1,10,8,3.6
13,2,5.2,3,3
14,2,5.2,3.6,3.2
15,3,4.4,2.8,3
16,4,2.8,1.8,2.4
17,2,6.8,4.2,3.8
18,2,6.8,3.4,3.4
19,2,6.8,3.4,3.2
20,2,6.8,2.6,3.4
21,2,6.8,3.4,3.8
22,2,6.8,4.2,3.2
23,1,10,5,3.8
24,2,6.8,3.4,3.4
25,3,3.6,1.8,2.8
26,2,6.8,3.4,3.2
27,3,3.6,2.2,2.6
28,3,3.6,1.8,3
29,3,3.6,1.8,3.2
30,2,6.8,3.4,3.6
32,2,6.8,3.4,3.6
33,2,6.8,3.4,4
34,2,6.8,3.4,3
35,2,6.8,4.2,3.2
36,3,4.4,2.8,2.8
37,1,10,6,3.8
38,1,10,6,3.4
39,2,5.2,2.6,3.6
40,2,5.2,2.6,3.6
41,3,3.6,1.8,3.2
42,2,5.2,2.6,3.2
43,2,5.2,3.2,3
44,2,5.2,2.6,3.2
45,2,5.2,2,4
46,2,5.2,2.6,3.6
47,2,5.2,2.6,3.6
48,2,5.2,2.6,3.8
49,2,5.2,2,4
50,2,5.2,2.6,3.6
51,2,5.2,2.6,3.6
52,2,5.2,2.6,3.6
53,2,5.2,2.6,3.8
54,2,5.2,2.6,3.6
55,2,5.2,2.6,3.8
56,2,5.2,3.2,3.6
57,2,5.2,2.6,3.6
58,2,5.2,2.6,3.8
59,2,5.2,2.6,3.6
60,2,5.2,3.2,3.6
