0,1,10,3,7.6
1,1,10,4,5.8
2,1,10,5,4.2
3,1,10,3,4.6
4,2,5.2,2.6,3.8
5,1,10,5,4.6
6,2,8.2,3.6,4
7,2,6.8,3.4,3.6
8,1,10,5,3.8
9,2,6.8,5.8,3
10,1,10,9,3.4
11,2,5.2,3.8,3.4
12,3,3.6,2.2,2.6
13,2,5.2,3.8,3.4
14,2,5.2,3.8,3.2
15,2,5.2,3.2,3.6
16,3,4.2,2.3,3.2
17,2,5.2,3.2,2.8
18,2,5.2,3.2,3.4
19,2,5.2,2.6,3.4
20,2,5.2,3.2,3.6
21,2,5.2,3.2,3.4
22,2,5.2,3.2,3.2
23,2,5.2,3.8,3.2
24,1,10,6,4
25,1,10,5,4.2
26,1,10,5,3.8
27,2,8.2,5.4,3
28,4,3.4,2.4,2.4
29,3,4.2,2.3,3
30,3,4.2,2.3,3.2
32,3,4.2,2.3,3.2
33,3,4.2,1.8,3.8
34,3,4.2,1.8,3.6
35,3,4.2,1.8,3.2
36,3,4.2,1.8,3.6
37,3,4.2,2.3,3
38,3,4.2,2.3,2.8
39,3,4.2,1.8,3.2
40,2,5,2.5,3.8
41,3,4.2,1.8,3.4
42,2,5,3,3.2
43,2,5.2,3,3.2
44,1,10,6,3.8
45,1,10,7,4
46,2,5,3,3
47,2,5,3.5,3.2
48,2,5,3,3
49,2,5,3.5,3
50,3,4.2,2.3,2.8
51,2,5,2.5,3.2
52,2,8.2,5.4,3
53,4,3.4,1.6,2.6
54,2,5.2,3.2,3.6
55,1,10,7,3
56,1,10,8,3.2
57,2,8.2,5.4,2.8
58,3,6.6,4,3.2
59,3,6.6,4.8,2.6
60,3,4.2,1.8,3
