0,2,8.2,2.7,5.4
1,1,10,3,4.8
2,1,10,3,5
3,1,10,4,4.4
4,1,10,4,4.2
5,1,10,5,4.2
6,1,10,6,4
7,1,10,6,3.2
8,2,5.8,2.7,3.6
9,2,5.8,2.7,3.4
10,3,3.8,2.3,2.6
11,2,5.2,3.2,3.4
12,1,10,7,3.4
13,1,10,7,3.8
14,1,10,6,4.2
15,3,6.6,2.4,3.2
16,1,10,7,3.8
17,1,10,6,4.2
18,1,10,5,4.6
19,1,10,6,4.2
20,2,5.8,3.4,3.4
21,3,3.8,2.3,3
22,2,5.8,3.4,3.4
23,1,10,5,3.8
24,2,5,3,2.8
25,1,10,5,4.2
26,1,10,5,4.4
27,1,10,5,3.8
28,1,10,4,3.8
29,1,10,4,4.8
30,1,10,4,4.6
32,2,5,3,3
33,2,5,3,3
34,2,5,3.5,3.2
35,2,6.8,3.4,3.6
36,3,5.4,3,2.8
37,1,10,4,4.4
38,2,5,3,3.8
39,2,5,3.5,3.4
40,2,5,3,3.6
41,2,5,3,3.2
42,3,3.8,2.5,2.8
43,2,5,3,3.2
44,2,5,3.5,3.2
45,3,3.8,2.5,3
46,3,3.8,2.8,2.4
47,4,3,2,2
48,3,3.8,2.5,2.6
49,3,3.8,2.5,3
50,3,3.8,2,3
51,2,5.8,3.8,3.4
52,4,3,1.7,2.4
53,2,5,3,3.4
54,2,5,3,3.4
55,2,5,3,3.2
56,2,5,3,3.8
57,2,5,3,4
58,3,3.8,2,3.2
59,2,5,3,3.2
60,2,5,3,3.8
