0,1,4,1,3,12,1,3,12
1,1,4,1,3,12,1,3,12
2,1,4,1,3,12,1,3,12
3,1,4,1,3,12,1,3,12
4,1,4,1,3,12,1,3,12
5,1,4,1,3,12,1,3,12
6,1,4,1,3,12,1,3,12
7,1,4,1,3,12,1,3,12
8,1,4,1,3,12,1,3,12
9,1,4,1,3,12,1,3,12
10,1,4,2,2.5,10,2,2.5,10
11,1,4,2,2.5,10,2,2.5,10
12,1,4,2,2.5,10,2,2.5,10
13,1,4,3,1.5,6,3,1.5,6
14,2,2,1,1,4,1,1,4
15,1,4,2,2,8,2,2,8
16,1,4,2,2.5,10,2,2.5,10
17,1,4,2,2.5,10,2,2.5,10
18,1,4,2,2.5,10,2,2.5,10
19,1,4,2,2.5,10,2,2.5,10
20,2,2.5,0.75,1.5,6,0.75,1.5,6
21,1,4,2,2.5,10,2,2.5,10
22,1,4,2,2,8,2,2,8
23,1,4,2,2,8,2,2,8
24,1,4,3,1.5,6,3,1.5,6
25,1,4,3,1.5,6,3,1.5,6
26,2,2.5,0.75,1.5,6,0.75,1.5,6
27,2,2.5,0.75,1.5,6,0.75,1.5,6
28,1,4,2,2.5,10,2,2.5,10
29,1,4,2,2,8,2,2,8
30,1,4,2,2.5,10,2,2.5,10
31,2,2.5,1.5,1,4,1.5,1,4
32,1,4,2,2,8,2,2,8
34,1,4,3,1.5,6,3,1.5,6
35,1,4,3,1.5,6,3,1.5,6
36,1,4,3,1.5,6,3,1.5,6
37,1,4,2,2,8,2,2,8
38,1,4,2,2,8,2,2,8
39,1,4,2,2,8,2,2,8
40,1,4,2,2,8,2,2,8
41,1,4,2,2.5,10,2,2.5,10
42,1,4,2,2,8,2,2,8
43,1,4,2,2,8,2,2,8
