0,1,4,1,3,12,1,3,12
1,1,4,1,3,12,1,3,12
2,1,4,1,3,12,1,3,12
3,1,4,1,3,12,1,3,12
4,1,4,1,3,12,1,3,12
5,1,4,1,3,12,1,3,12
6,1,4,2,2.5,10,2,2.5,10
7,1,4,1,3,12,1,3,12
8,1,4,2,2,8,2,2,8
9,1,4,2,2.5,10,2,2.5,10
10,1,4,2,2.5,10,2,2.5,10
11,1,4,2,2,8,2,2,8
12,1,4,1,3,12,1,3,12
13,1,4,2,2.5,10,2,2.5,10
14,1,4,3,1.5,6,3,1.5,6
15,1,4,1,3,12,1,3,12
16,1,4,2,2.5,10,2,2.5,10
17,1,4,2,2,8,2,2,8
18,1,4,2,2.5,10,2,2.5,10
19,1,4,2,2,8,2,2,8
20,1,4,2,2.5,10,2,2.5,10
21,1,4,1,3,12,1,3,12
22,1,4,1,3,12,1,3,12
23,1,4,1,3,12,1,3,12
