0,1,4,1,3,12,1,3,12
1,1,4,1,3,12,1,3,12
2,1,4,1,3,12,1,3,12
3,1,4,1,3,12,1,3,12
4,1,4,1,3,12,1,3,12
5,1,4,1,3,12,1,3,12
6,1,4,2,2.5,10,2,2.5,10
7,1,4,1,3,12,1,3,12
8,1,4,2,2,8,2,2,8
9,2,2,1,1,4,1,1,4
10,2,2,1,1,4,1,1,4
11,2,2,1,1,4,1,1,4
12,2,2,1,1,4,1,1,4
13,2,2,1,1,4,1,1,4
14,2,2,1,1,4,1,1,4
15,2,2,1,1,4,1,1,4
16,2,2,1,1,4,1,1,4
17,2,2,1,1,4,1,1,4
18,2,2,1,1,4,1,1,4
19,2,2,1,1,4,1,1,4
20,2,2,1,1,4,1,1,4
21,2,2,1,1,4,1,1,4
