0,1,4,3,1,4,1,2,4
1,1,4,2,1,4,1,3,6
2,1,4,2,1,4,1,3,6
3,1,4,2,1,4,1,3,6
4,1,4,2,1.5,6,1,3,6
5,1,4,3,1,4,1,2,4
6,1,4,2,1,4,1,3,6
7,1,4,2,1,4,1,3,6
8,1,4,2,1,4,1,3,6
9,1,4,2,1,4,1,3,6
10,1,4,2,1,4,1,3,6
11,1,4,2,1.5,6,1,3,6
12,1,4,2,1.5,6,2,2,6
13,1,4,2,1.25,5,2,2,6
14,1,4,2,1.25,5,1,3,6
15,1,4,2,1.25,5,1,3,6
16,1,4,2,1.5,6,1,3,6
17,1,4,2,1.5,6,1,3,6
18,1,4,3,1.5,6,1,3,6
19,2,2,1,1,4,0,2,4
20,3,1.5,0.5,0.5,2,0,0.666667,2
21,2,2,1,1,4,0,2,4
22,2,2,1,1,4,0,2,4
23,2,2,1,1,4,0,2,4
24,2,2,1,1,4,0,2,4
25,2,2,1,1,4,0,2,4
26,2,2,1,1,4,0,2,4
27,2,2,1,1,4,0,2,4
28,2,2,1,1,4,0,2,4
29,2,2,1,1,4,0,2,4
30,2,2,1,1,4,0,2,4
31,2,2,1,1,4,0,2,4
32,2,2,1,1,4,0,2,4
33,2,2,1,1,4,0,2,4
35,2,2,1,1,4,0,2,4
36,2,2,1,1,4,0,2,4
37,2,2,1,1,4,0,2,4
38,2,2,1,1,4,0,2,4
