0,1,4,3,1,4,1,2,4
1,1,4,2,1,4,1,3,6
2,1,4,2,1.5,6,1,3,6
3,1,4,2,1,4,1,3,6
4,1,4,2,1.5,6,1,3,6
5,1,4,2,1,4,1,3,6
6,1,4,2,1,4,1,3,6
7,1,4,2,1.5,6,1,3,6
8,1,4,2,1.75,7,1,4,8
9,1,4,2,1.5,6,1,3,6
10,1,4,2,1.25,5,1,3,6
11,1,4,2,1.25,5,1,3,6
12,1,4,3,1,4,1,2,4
13,2,2,1,1,4,0,2,4
14,2,2,1,1,4,0,2,4
15,2,2,1,1,4,0,2,4
16,2,2,1,1,4,0,2,4
17,2,2,1,1,4,0,2,4
18,2,2,1,1,4,0,2,4
19,2,2,1,1,4,0,2,4
20,2,2,1,1,4,0,2,4
21,2,2,1,1,4,0,2,4
22,2,2,1,1,4,0,2,4
23,2,2,1,1,4,0,2,4
24,2,2,1,1,4,0,2,4
25,2,2,1,1,4,0,2,4
26,2,2,1,1,4,0,2,4
27,2,2,1,1,4,0,2,4
28,2,2,1,1,4,0,2,4
29,2,2,1,1,4,0,2,4
30,2,2,1,1,4,0,2,4
31,2,2,1,1,4,0,2,4
32,2,2,1,1,4,0,2,4
33,2,2,1,1,4,0,2,4
35,2,2,1,1,4,0,2,4
36,2,2,1,1,4,0,2,4
37,2,2,1,1,4,0,2,4
38,2,2,1,1,4,0,2,4
39,2,2,1,1,4,0,2,4
40,2,2,1,1,4,0,2,4
41,2,2,1,1,4,0,2,4
