0,1,4,1,3,12,1,3,12
1,1,4,1,3,12,1,3,12
2,1,4,1,3,12,1,3,12
3,1,4,1,3,12,1,3,12
4,1,4,1,3,12,1,3,12
5,1,4,1,3,12,1,3,12
6,1,4,2,2.5,10,2,2.5,10
7,1,4,1,3,12,1,3,12
8,1,4,2,2,8,2,2,8
9,1,4,2,2.5,10,2,2.5,10
10,1,4,2,2.5,10,2,2.5,10
11,1,4,3,1.5,6,3,1.5,6
12,1,4,2,2.5,10,2,2.5,10
13,1,4,2,2,8,2,2,8
14,2,2.5,1.5,1,4,1.5,1,4
15,1,4,3,1.5,6,3,1.5,6
16,1,4,3,1.5,6,3,1.5,6
17,1,4,3,1.5,6,3,1.5,6
18,1,4,3,1.5,6,3,1.5,6
19,1,4,3,1.5,6,3,1.5,6
20,2,2,1,1,4,1,1,4
21,2,2,1,1,4,1,1,4
22,2,2,1,1,4,1,1,4
23,2,2,1,1,4,1,1,4
24,2,2,1,1,4,1,1,4
